%YAML 1.1
%TAG !u! tag:unity3d.com,2011:
--- !u!74 &7400000
AnimationClip:
  m_ObjectHideFlags: 0
  m_PrefabParentObject: {fileID: 0}
  m_PrefabInternal: {fileID: 0}
  m_Name: digOut
  serializedVersion: 6
  m_Legacy: 0
  m_Compressed: 0
  m_UseHighQualityCurve: 1
  m_RotationCurves: []
  m_CompressedRotationCurves: []
  m_EulerCurves:
  - curve:
      serializedVersion: 2
      m_Curve:
      - time: 0
        value: {x: -40, y: 0, z: 0}
        inSlope: {x: 109.164, y: 180, z: 0}
        outSlope: {x: 109.164, y: 180, z: 0}
        tangentMode: 0
      - time: 0.083333336
        value: {x: -30.903, y: 15, z: 0}
        inSlope: {x: 78.91621, y: 44.999996, z: 0}
        outSlope: {x: 78.91621, y: 44.999996, z: 0}
        tangentMode: 0
      - time: 0.25
        value: {x: -22.7916, y: 0, z: 0}
        inSlope: {x: 47.468704, y: -90.00001, z: 0}
        outSlope: {x: 47.468704, y: -90.00001, z: 0}
        tangentMode: 0
      - time: 0.41666666
        value: {x: -15.0801, y: -15, z: 0}
        inSlope: {x: 45.819, y: 0, z: 0}
        outSlope: {x: 45.819, y: 0, z: 0}
        tangentMode: 0
      - time: 0.5833333
        value: {x: -7.5186, y: 0, z: 0}
        inSlope: {x: 45.2403, y: 45.000004, z: 0}
        outSlope: {x: 45.2403, y: 45.000004, z: 0}
        tangentMode: 0
      - time: 0.75
        value: {x: 0, y: 0, z: 0}
        inSlope: {x: 22.555798, y: 0, z: 0}
        outSlope: {x: 22.555798, y: 0, z: 0}
        tangentMode: 0
      - time: 1.25
        value: {x: 0, y: 0, z: 0}
        inSlope: {x: 0, y: 0, z: 0}
        outSlope: {x: 0, y: 0, z: 0}
        tangentMode: 0
      m_PreInfinity: 2
      m_PostInfinity: 2
      m_RotationOrder: 4
    path: scorpion
  m_PositionCurves:
  - curve:
      serializedVersion: 2
      m_Curve:
      - time: 0
        value: {x: 0, y: -9.44, z: -12.87}
        inSlope: {x: 0, y: 22.655994, z: 30.888004}
        outSlope: {x: 0, y: 22.655994, z: 30.888004}
        tangentMode: 0
      - time: 0.083333336
        value: {x: 0, y: -7.552, z: -10.296}
        inSlope: {x: 0, y: 16.991997, z: 23.166002}
        outSlope: {x: 0, y: 16.991997, z: 23.166002}
        tangentMode: 0
      - time: 0.75
        value: {x: 0, y: 0, z: 0}
        inSlope: {x: 0, y: 5.664, z: 7.7219996}
        outSlope: {x: 0, y: 5.664, z: 7.7219996}
        tangentMode: 0
      - time: 1.25
        value: {x: 0, y: 0, z: 0}
        inSlope: {x: 0, y: 0, z: 0}
        outSlope: {x: 0, y: 0, z: 0}
        tangentMode: 0
      m_PreInfinity: 2
      m_PostInfinity: 2
      m_RotationOrder: 4
    path: scorpion
  m_ScaleCurves: []
  m_FloatCurves: []
  m_PPtrCurves: []
  m_SampleRate: 12
  m_WrapMode: 0
  m_Bounds:
    m_Center: {x: 0, y: 0, z: 0}
    m_Extent: {x: 0, y: 0, z: 0}
  m_ClipBindingConstant:
    genericBindings:
    - path: 3812981318
      attribute: 1
      script: {fileID: 0}
      classID: 4
      customType: 0
      isPPtrCurve: 0
    - path: 3812981318
      attribute: 4
      script: {fileID: 0}
      classID: 4
      customType: 14
      isPPtrCurve: 0
    pptrCurveMapping: []
  m_AnimationClipSettings:
    serializedVersion: 2
    m_AdditiveReferencePoseClip: {fileID: 0}
    m_AdditiveReferencePoseTime: 0
    m_StartTime: 0
    m_StopTime: 1.25
    m_OrientationOffsetY: 0
    m_Level: 0
    m_CycleOffset: 0
    m_HasAdditiveReferencePose: 0
    m_LoopTime: 0
    m_LoopBlend: 0
    m_LoopBlendOrientation: 0
    m_LoopBlendPositionY: 0
    m_LoopBlendPositionXZ: 0
    m_KeepOriginalOrientation: 0
    m_KeepOriginalPositionY: 1
    m_KeepOriginalPositionXZ: 0
    m_HeightFromFeet: 0
    m_Mirror: 0
  m_EditorCurves:
  - curve:
      serializedVersion: 2
      m_Curve:
      - time: 0
        value: 0
        inSlope: 0
        outSlope: 0
        tangentMode: 10
      - time: 0.083333336
        value: 0
        inSlope: 0
        outSlope: 0
        tangentMode: 10
      - time: 0.75
        value: 0
        inSlope: 0
        outSlope: 0
        tangentMode: 10
      - time: 1.25
        value: 0
        inSlope: 0
        outSlope: 0
        tangentMode: 10
      m_PreInfinity: 2
      m_PostInfinity: 2
      m_RotationOrder: 4
    attribute: m_LocalPosition.x
    path: scorpion
    classID: 4
    script: {fileID: 0}
  - curve:
      serializedVersion: 2
      m_Curve:
      - time: 0
        value: -9.44
        inSlope: 22.655994
        outSlope: 22.655994
        tangentMode: 10
      - time: 0.083333336
        value: -7.552
        inSlope: 16.991997
        outSlope: 16.991997
        tangentMode: 10
      - time: 0.75
        value: 0
        inSlope: 5.664
        outSlope: 5.664
        tangentMode: 10
      - time: 1.25
        value: 0
        inSlope: 0
        outSlope: 0
        tangentMode: 10
      m_PreInfinity: 2
      m_PostInfinity: 2
      m_RotationOrder: 4
    attribute: m_LocalPosition.y
    path: scorpion
    classID: 4
    script: {fileID: 0}
  - curve:
      serializedVersion: 2
      m_Curve:
      - time: 0
        value: -12.87
        inSlope: 30.888004
        outSlope: 30.888004
        tangentMode: 10
      - time: 0.083333336
        value: -10.296
        inSlope: 23.166002
        outSlope: 23.166002
        tangentMode: 10
      - time: 0.75
        value: 0
        inSlope: 7.7219996
        outSlope: 7.7219996
        tangentMode: 10
      - time: 1.25
        value: 0
        inSlope: 0
        outSlope: 0
        tangentMode: 10
      m_PreInfinity: 2
      m_PostInfinity: 2
      m_RotationOrder: 4
    attribute: m_LocalPosition.z
    path: scorpion
    classID: 4
    script: {fileID: 0}
  - curve:
      serializedVersion: 2
      m_Curve:
      - time: 0
        value: -40
        inSlope: 109.164
        outSlope: 109.164
        tangentMode: 10
      - time: 0.083333336
        value: -30.903
        inSlope: 78.91621
        outSlope: 78.91621
        tangentMode: 10
      - time: 0.25
        value: -22.7916
        inSlope: 47.468704
        outSlope: 47.468704
        tangentMode: 10
      - time: 0.41666666
        value: -15.0801
        inSlope: 45.819
        outSlope: 45.819
        tangentMode: 10
      - time: 0.5833333
        value: -7.5186
        inSlope: 45.2403
        outSlope: 45.2403
        tangentMode: 10
      - time: 0.75
        value: 0
        inSlope: 22.555798
        outSlope: 22.555798
        tangentMode: 10
      - time: 1.25
        value: 0
        inSlope: 0
        outSlope: 0
        tangentMode: 10
      m_PreInfinity: 2
      m_PostInfinity: 2
      m_RotationOrder: 4
    attribute: localEulerAnglesRaw.x
    path: scorpion
    classID: 4
    script: {fileID: 0}
  - curve:
      serializedVersion: 2
      m_Curve:
      - time: 0
        value: 0
        inSlope: 180
        outSlope: 180
        tangentMode: 10
      - time: 0.083333336
        value: 15
        inSlope: 44.999996
        outSlope: 44.999996
        tangentMode: 10
      - time: 0.25
        value: 0
        inSlope: -90.00001
        outSlope: -90.00001
        tangentMode: 10
      - time: 0.41666666
        value: -15
        inSlope: 0
        outSlope: 0
        tangentMode: 10
      - time: 0.5833333
        value: 0
        inSlope: 45.000004
        outSlope: 45.000004
        tangentMode: 10
      - time: 0.75
        value: 0
        inSlope: 0
        outSlope: 0
        tangentMode: 10
      - time: 1.25
        value: 0
        inSlope: 0
        outSlope: 0
        tangentMode: 10
      m_PreInfinity: 2
      m_PostInfinity: 2
      m_RotationOrder: 4
    attribute: localEulerAnglesRaw.y
    path: scorpion
    classID: 4
    script: {fileID: 0}
  - curve:
      serializedVersion: 2
      m_Curve:
      - time: 0
        value: 0
        inSlope: 0
        outSlope: 0
        tangentMode: 10
      - time: 0.083333336
        value: 0
        inSlope: 0
        outSlope: 0
        tangentMode: 10
      - time: 0.25
        value: 0
        inSlope: 0
        outSlope: 0
        tangentMode: 10
      - time: 0.41666666
        value: 0
        inSlope: 0
        outSlope: 0
        tangentMode: 10
      - time: 0.5833333
        value: 0
        inSlope: 0
        outSlope: 0
        tangentMode: 10
      - time: 0.75
        value: 0
        inSlope: 0
        outSlope: 0
        tangentMode: 10
      - time: 1.25
        value: 0
        inSlope: 0
        outSlope: 0
        tangentMode: 10
      m_PreInfinity: 2
      m_PostInfinity: 2
      m_RotationOrder: 4
    attribute: localEulerAnglesRaw.z
    path: scorpion
    classID: 4
    script: {fileID: 0}
  m_EulerEditorCurves:
  - curve:
      serializedVersion: 2
      m_Curve: []
      m_PreInfinity: 2
      m_PostInfinity: 2
      m_RotationOrder: 4
    attribute: m_LocalEulerAngles.x
    path: scorpion
    classID: 4
    script: {fileID: 0}
  - curve:
      serializedVersion: 2
      m_Curve: []
      m_PreInfinity: 2
      m_PostInfinity: 2
      m_RotationOrder: 4
    attribute: m_LocalEulerAngles.y
    path: scorpion
    classID: 4
    script: {fileID: 0}
  - curve:
      serializedVersion: 2
      m_Curve: []
      m_PreInfinity: 2
      m_PostInfinity: 2
      m_RotationOrder: 4
    attribute: m_LocalEulerAngles.z
    path: scorpion
    classID: 4
    script: {fileID: 0}
  m_HasGenericRootTransform: 0
  m_HasMotionFloatCurves: 0
  m_GenerateMotionCurves: 0
  m_Events:
  - time: 1.1666666
    functionName: StopDigging
    data: 
    objectReferenceParameter: {fileID: 0}
    floatParameter: 0
    intParameter: 0
    messageOptions: 0
