# Blender MTL File: 'None'
# Material Count: 1

newmtl Grass_Green_01
Ns 9.803922
Ka 1.000000 1.000000 1.000000
Kd 0.276078 0.555294 0.084706
Ks 0.000000 0.000000 0.000000
Ke 0.000000 0.000000 0.000000
Ni 1.000000
d 1.000000
illum 1
