# MagicaVoxel @ Ephtracy

# group
g rock2

# material
mtllib rock2.mtl
usemtl palette

# normals
vn -1 0 0
vn 1 0 0
vn 0 0 1
vn 0 0 -1
vn 0 -1 0
vn 0 1 0

# texcoords
vt 0.978516 0.5

# verts
v 1 0 9
v 1 0 -7
v 1 21 9
v 1 21 -7
v 6 0 -7
v 6 0 -9
v 6 1 -9
v 6 1 -11
v 6 15 -7
v 6 15 -11
v 7 0 -9
v 7 0 -11
v 7 1 -9
v 7 1 -11
v 11 0 14
v 11 0 9
v 11 8 14
v 11 8 9
v 13 8 9
v 13 8 1
v 13 15 1
v 13 15 -7
v 13 21 9
v 13 21 -7
v 15 0 1
v 15 0 -1
v 15 1 1
v 15 1 -1
v 17 0 -7
v 17 0 -11
v 17 1 -7
v 17 1 -11
v 18 0 8
v 18 0 1
v 18 0 -1
v 18 0 -7
v 18 1 8
v 18 1 1
v 18 1 -1
v 18 1 -7
v 18 1 -11
v 18 8 1
v 18 15 1
v 18 15 -11
v 19 0 14
v 19 0 8
v 19 1 8
v 19 1 1
v 19 8 14
v 19 8 1
v 11 0 14
v 11 8 14
v 19 0 14
v 19 8 14
v 1 0 9
v 1 21 9
v 11 0 9
v 11 8 9
v 13 8 9
v 13 21 9
v 13 8 1
v 13 15 1
v 18 8 1
v 18 15 1
v 15 0 -1
v 15 1 -1
v 18 0 -1
v 18 1 -1
v 18 0 8
v 18 1 8
v 19 0 8
v 19 1 8
v 15 0 1
v 15 1 1
v 18 0 1
v 18 1 1
v 18 8 1
v 19 1 1
v 19 8 1
v 1 0 -7
v 1 21 -7
v 6 0 -7
v 6 15 -7
v 13 15 -7
v 13 21 -7
v 17 0 -7
v 17 1 -7
v 18 0 -7
v 18 1 -7
v 6 0 -9
v 6 1 -9
v 7 0 -9
v 7 1 -9
v 6 1 -11
v 6 15 -11
v 7 0 -11
v 7 1 -11
v 17 0 -11
v 17 1 -11
v 18 1 -11
v 18 15 -11
v 11 0 14
v 19 0 14
v 1 0 9
v 11 0 9
v 18 0 8
v 19 0 8
v 15 0 1
v 18 0 1
v 15 0 -1
v 18 0 -1
v 1 0 -7
v 6 0 -7
v 17 0 -7
v 18 0 -7
v 6 0 -9
v 7 0 -9
v 7 0 -11
v 17 0 -11
v 18 1 8
v 19 1 8
v 15 1 1
v 18 1 1
v 19 1 1
v 15 1 -1
v 18 1 -1
v 17 1 -7
v 18 1 -7
v 6 1 -9
v 7 1 -9
v 6 1 -11
v 7 1 -11
v 17 1 -11
v 18 1 -11
v 11 8 14
v 19 8 14
v 11 8 9
v 13 8 9
v 13 8 1
v 18 8 1
v 19 8 1
v 13 15 1
v 18 15 1
v 6 15 -7
v 13 15 -7
v 6 15 -11
v 18 15 -11
v 1 21 9
v 13 21 9
v 1 21 -7
v 13 21 -7

# faces
f 3/1/1 2/1/1 1/1/1
f 4/1/1 2/1/1 3/1/1
f 7/1/1 6/1/1 5/1/1
f 9/1/1 7/1/1 5/1/1
f 9/1/1 8/1/1 7/1/1
f 10/1/1 8/1/1 9/1/1
f 13/1/1 12/1/1 11/1/1
f 14/1/1 12/1/1 13/1/1
f 17/1/1 16/1/1 15/1/1
f 18/1/1 16/1/1 17/1/1
f 19/1/2 20/1/2 21/1/2
f 19/1/2 21/1/2 23/1/2
f 21/1/2 22/1/2 23/1/2
f 23/1/2 22/1/2 24/1/2
f 25/1/2 26/1/2 27/1/2
f 27/1/2 26/1/2 28/1/2
f 29/1/2 30/1/2 31/1/2
f 31/1/2 30/1/2 32/1/2
f 33/1/2 34/1/2 37/1/2
f 37/1/2 34/1/2 38/1/2
f 35/1/2 36/1/2 39/1/2
f 39/1/2 36/1/2 40/1/2
f 40/1/2 41/1/2 42/1/2
f 39/1/2 40/1/2 42/1/2
f 38/1/2 39/1/2 42/1/2
f 42/1/2 41/1/2 43/1/2
f 43/1/2 41/1/2 44/1/2
f 45/1/2 46/1/2 47/1/2
f 45/1/2 47/1/2 49/1/2
f 47/1/2 48/1/2 49/1/2
f 49/1/2 48/1/2 50/1/2
f 53/1/3 52/1/3 51/1/3
f 54/1/3 52/1/3 53/1/3
f 57/1/3 56/1/3 55/1/3
f 58/1/3 56/1/3 57/1/3
f 59/1/3 56/1/3 58/1/3
f 60/1/3 56/1/3 59/1/3
f 63/1/3 62/1/3 61/1/3
f 64/1/3 62/1/3 63/1/3
f 67/1/3 66/1/3 65/1/3
f 68/1/3 66/1/3 67/1/3
f 69/1/4 70/1/4 71/1/4
f 71/1/4 70/1/4 72/1/4
f 73/1/4 74/1/4 75/1/4
f 75/1/4 74/1/4 76/1/4
f 76/1/4 77/1/4 78/1/4
f 78/1/4 77/1/4 79/1/4
f 80/1/4 81/1/4 82/1/4
f 82/1/4 81/1/4 83/1/4
f 83/1/4 81/1/4 84/1/4
f 84/1/4 81/1/4 85/1/4
f 86/1/4 87/1/4 88/1/4
f 88/1/4 87/1/4 89/1/4
f 90/1/4 91/1/4 92/1/4
f 92/1/4 91/1/4 93/1/4
f 94/1/4 95/1/4 97/1/4
f 96/1/4 97/1/4 98/1/4
f 97/1/4 95/1/4 99/1/4
f 98/1/4 97/1/4 99/1/4
f 99/1/4 95/1/4 100/1/4
f 100/1/4 95/1/4 101/1/4
f 105/1/5 103/1/5 102/1/5
f 106/1/5 103/1/5 105/1/5
f 106/1/5 105/1/5 104/1/5
f 107/1/5 103/1/5 106/1/5
f 108/1/5 106/1/5 104/1/5
f 109/1/5 106/1/5 108/1/5
f 110/1/5 108/1/5 104/1/5
f 112/1/5 110/1/5 104/1/5
f 112/1/5 111/1/5 110/1/5
f 113/1/5 111/1/5 112/1/5
f 114/1/5 111/1/5 113/1/5
f 115/1/5 111/1/5 114/1/5
f 116/1/5 114/1/5 113/1/5
f 117/1/5 114/1/5 116/1/5
f 118/1/5 114/1/5 117/1/5
f 119/1/5 114/1/5 118/1/5
f 123/1/5 121/1/5 120/1/5
f 124/1/5 121/1/5 123/1/5
f 125/1/5 123/1/5 122/1/5
f 126/1/5 123/1/5 125/1/5
f 131/1/5 130/1/5 129/1/5
f 132/1/5 130/1/5 131/1/5
f 133/1/5 128/1/5 127/1/5
f 134/1/5 128/1/5 133/1/5
f 135/1/6 136/1/6 137/1/6
f 137/1/6 136/1/6 138/1/6
f 138/1/6 136/1/6 139/1/6
f 139/1/6 136/1/6 140/1/6
f 140/1/6 136/1/6 141/1/6
f 142/1/6 143/1/6 145/1/6
f 144/1/6 145/1/6 146/1/6
f 145/1/6 143/1/6 147/1/6
f 146/1/6 145/1/6 147/1/6
f 148/1/6 149/1/6 150/1/6
f 150/1/6 149/1/6 151/1/6
