%YAML 1.1
%TAG !u! tag:unity3d.com,2011:
--- !u!74 &7400000
AnimationClip:
  m_ObjectHideFlags: 0
  m_PrefabParentObject: {fileID: 0}
  m_PrefabInternal: {fileID: 0}
  m_Name: shoot_AK47
  serializedVersion: 6
  m_Legacy: 0
  m_Compressed: 0
  m_UseHighQualityCurve: 1
  m_RotationCurves: []
  m_CompressedRotationCurves: []
  m_EulerCurves:
  - curve:
      serializedVersion: 2
      m_Curve:
      - time: 0
        value: {x: 0, y: 90, z: 0}
        inSlope: {x: 0, y: 0, z: -267.07648}
        outSlope: {x: 0, y: 0, z: -267.07648}
        tangentMode: 0
      - time: 0.06666667
        value: {x: 0, y: 90, z: -17.8051}
        inSlope: {x: 0, y: 0, z: 0}
        outSlope: {x: 0, y: 0, z: 0}
        tangentMode: 0
      - time: 0.13333334
        value: {x: 0, y: 90, z: 0}
        inSlope: {x: 0, y: 0, z: -0.000015258789}
        outSlope: {x: 0, y: 0, z: -0.000015258789}
        tangentMode: 0
      - time: 0.2
        value: {x: 0, y: 90, z: -17.8051}
        inSlope: {x: 0, y: 0, z: -0.000030517578}
        outSlope: {x: 0, y: 0, z: -0.000030517578}
        tangentMode: 0
      - time: 0.26666668
        value: {x: 0, y: 90, z: 0}
        inSlope: {x: 0, y: 0, z: -0.000030517578}
        outSlope: {x: 0, y: 0, z: -0.000030517578}
        tangentMode: 0
      - time: 0.33333334
        value: {x: 0, y: 90, z: -17.8051}
        inSlope: {x: 0, y: 0, z: 0}
        outSlope: {x: 0, y: 0, z: 0}
        tangentMode: 0
      - time: 0.4
        value: {x: 0, y: 90, z: 0}
        inSlope: {x: 0, y: 0, z: 0}
        outSlope: {x: 0, y: 0, z: 0}
        tangentMode: 0
      - time: 0.46666667
        value: {x: 0, y: 90, z: -17.8051}
        inSlope: {x: 0, y: 0, z: -0.000061035156}
        outSlope: {x: 0, y: 0, z: -0.000061035156}
        tangentMode: 0
      - time: 0.53333336
        value: {x: 0, y: 90, z: 0}
        inSlope: {x: 0, y: 0, z: 133.5382}
        outSlope: {x: 0, y: 0, z: 133.5382}
        tangentMode: 0
      - time: 0.6666667
        value: {x: 0, y: 90, z: 0}
        inSlope: {x: 0, y: 0, z: 0}
        outSlope: {x: 0, y: 0, z: 0}
        tangentMode: 0
      m_PreInfinity: 2
      m_PostInfinity: 2
      m_RotationOrder: 4
    path: Model
  m_PositionCurves:
  - curve:
      serializedVersion: 2
      m_Curve:
      - time: 0
        value: {x: 0, y: 0, z: 0}
        inSlope: {x: 0, y: 33.75, z: 0}
        outSlope: {x: 0, y: 33.75, z: 0}
        tangentMode: 0
      - time: 0.06666667
        value: {x: 0, y: 2.25, z: 0}
        inSlope: {x: 0, y: 0, z: 0}
        outSlope: {x: 0, y: 0, z: 0}
        tangentMode: 0
      - time: 0.13333334
        value: {x: 0, y: 0, z: 0}
        inSlope: {x: 0, y: 0.0000019073486, z: 0}
        outSlope: {x: 0, y: 0.0000019073486, z: 0}
        tangentMode: 0
      - time: 0.2
        value: {x: 0, y: 2.25, z: 0}
        inSlope: {x: 0, y: 0.0000038146973, z: 0}
        outSlope: {x: 0, y: 0.0000038146973, z: 0}
        tangentMode: 0
      - time: 0.26666668
        value: {x: 0, y: 0, z: 0}
        inSlope: {x: 0, y: 0.0000038146973, z: 0}
        outSlope: {x: 0, y: 0.0000038146973, z: 0}
        tangentMode: 0
      - time: 0.33333334
        value: {x: 0, y: 2.25, z: 0}
        inSlope: {x: 0, y: 0, z: 0}
        outSlope: {x: 0, y: 0, z: 0}
        tangentMode: 0
      - time: 0.4
        value: {x: 0, y: 0, z: 0}
        inSlope: {x: 0, y: 0, z: 0}
        outSlope: {x: 0, y: 0, z: 0}
        tangentMode: 0
      - time: 0.46666667
        value: {x: 0, y: 2.25, z: 0}
        inSlope: {x: 0, y: 0.0000076293945, z: 0}
        outSlope: {x: 0, y: 0.0000076293945, z: 0}
        tangentMode: 0
      - time: 0.53333336
        value: {x: 0, y: 0, z: 0}
        inSlope: {x: 0, y: -16.874994, z: 0}
        outSlope: {x: 0, y: -16.874994, z: 0}
        tangentMode: 0
      - time: 0.6666667
        value: {x: 0, y: 0, z: 0}
        inSlope: {x: 0, y: 0, z: 0}
        outSlope: {x: 0, y: 0, z: 0}
        tangentMode: 0
      m_PreInfinity: 2
      m_PostInfinity: 2
      m_RotationOrder: 4
    path: Model
  m_ScaleCurves: []
  m_FloatCurves: []
  m_PPtrCurves: []
  m_SampleRate: 30
  m_WrapMode: 0
  m_Bounds:
    m_Center: {x: 0, y: 0, z: 0}
    m_Extent: {x: 0, y: 0, z: 0}
  m_ClipBindingConstant:
    genericBindings:
    - path: 374627805
      attribute: 1
      script: {fileID: 0}
      classID: 4
      customType: 0
      isPPtrCurve: 0
    - path: 374627805
      attribute: 4
      script: {fileID: 0}
      classID: 4
      customType: 14
      isPPtrCurve: 0
    pptrCurveMapping: []
  m_AnimationClipSettings:
    serializedVersion: 2
    m_AdditiveReferencePoseClip: {fileID: 0}
    m_AdditiveReferencePoseTime: 0
    m_StartTime: 0
    m_StopTime: 0.6666667
    m_OrientationOffsetY: 0
    m_Level: 0
    m_CycleOffset: 0
    m_HasAdditiveReferencePose: 0
    m_LoopTime: 0
    m_LoopBlend: 0
    m_LoopBlendOrientation: 0
    m_LoopBlendPositionY: 0
    m_LoopBlendPositionXZ: 0
    m_KeepOriginalOrientation: 0
    m_KeepOriginalPositionY: 1
    m_KeepOriginalPositionXZ: 0
    m_HeightFromFeet: 0
    m_Mirror: 0
  m_EditorCurves:
  - curve:
      serializedVersion: 2
      m_Curve:
      - time: 0
        value: 0
        inSlope: 0
        outSlope: 0
        tangentMode: 10
      - time: 0.06666667
        value: 0
        inSlope: 0
        outSlope: 0
        tangentMode: 10
      - time: 0.13333334
        value: 0
        inSlope: 0
        outSlope: 0
        tangentMode: 10
      - time: 0.2
        value: 0
        inSlope: 0
        outSlope: 0
        tangentMode: 10
      - time: 0.26666668
        value: 0
        inSlope: 0
        outSlope: 0
        tangentMode: 10
      - time: 0.33333334
        value: 0
        inSlope: 0
        outSlope: 0
        tangentMode: 10
      - time: 0.4
        value: 0
        inSlope: 0
        outSlope: 0
        tangentMode: 10
      - time: 0.46666667
        value: 0
        inSlope: 0
        outSlope: 0
        tangentMode: 10
      - time: 0.53333336
        value: 0
        inSlope: 0
        outSlope: 0
        tangentMode: 10
      - time: 0.6666667
        value: 0
        inSlope: 0
        outSlope: 0
        tangentMode: 10
      m_PreInfinity: 2
      m_PostInfinity: 2
      m_RotationOrder: 4
    attribute: m_LocalPosition.x
    path: Model
    classID: 4
    script: {fileID: 0}
  - curve:
      serializedVersion: 2
      m_Curve:
      - time: 0
        value: 0
        inSlope: 33.75
        outSlope: 33.75
        tangentMode: 10
      - time: 0.06666667
        value: 2.25
        inSlope: 0
        outSlope: 0
        tangentMode: 10
      - time: 0.13333334
        value: 0
        inSlope: 0.0000019073486
        outSlope: 0.0000019073486
        tangentMode: 10
      - time: 0.2
        value: 2.25
        inSlope: 0.0000038146973
        outSlope: 0.0000038146973
        tangentMode: 10
      - time: 0.26666668
        value: 0
        inSlope: 0.0000038146973
        outSlope: 0.0000038146973
        tangentMode: 10
      - time: 0.33333334
        value: 2.25
        inSlope: 0
        outSlope: 0
        tangentMode: 10
      - time: 0.4
        value: 0
        inSlope: 0
        outSlope: 0
        tangentMode: 10
      - time: 0.46666667
        value: 2.25
        inSlope: 0.0000076293945
        outSlope: 0.0000076293945
        tangentMode: 10
      - time: 0.53333336
        value: 0
        inSlope: -16.874994
        outSlope: -16.874994
        tangentMode: 10
      - time: 0.6666667
        value: 0
        inSlope: 0
        outSlope: 0
        tangentMode: 10
      m_PreInfinity: 2
      m_PostInfinity: 2
      m_RotationOrder: 4
    attribute: m_LocalPosition.y
    path: Model
    classID: 4
    script: {fileID: 0}
  - curve:
      serializedVersion: 2
      m_Curve:
      - time: 0
        value: 0
        inSlope: 0
        outSlope: 0
        tangentMode: 10
      - time: 0.06666667
        value: 0
        inSlope: 0
        outSlope: 0
        tangentMode: 10
      - time: 0.13333334
        value: 0
        inSlope: 0
        outSlope: 0
        tangentMode: 10
      - time: 0.2
        value: 0
        inSlope: 0
        outSlope: 0
        tangentMode: 10
      - time: 0.26666668
        value: 0
        inSlope: 0
        outSlope: 0
        tangentMode: 10
      - time: 0.33333334
        value: 0
        inSlope: 0
        outSlope: 0
        tangentMode: 10
      - time: 0.4
        value: 0
        inSlope: 0
        outSlope: 0
        tangentMode: 10
      - time: 0.46666667
        value: 0
        inSlope: 0
        outSlope: 0
        tangentMode: 10
      - time: 0.53333336
        value: 0
        inSlope: 0
        outSlope: 0
        tangentMode: 10
      - time: 0.6666667
        value: 0
        inSlope: 0
        outSlope: 0
        tangentMode: 10
      m_PreInfinity: 2
      m_PostInfinity: 2
      m_RotationOrder: 4
    attribute: m_LocalPosition.z
    path: Model
    classID: 4
    script: {fileID: 0}
  - curve:
      serializedVersion: 2
      m_Curve:
      - time: 0
        value: 0
        inSlope: 0
        outSlope: 0
        tangentMode: 10
      - time: 0.06666667
        value: 0
        inSlope: 0
        outSlope: 0
        tangentMode: 10
      - time: 0.13333334
        value: 0
        inSlope: 0
        outSlope: 0
        tangentMode: 10
      - time: 0.2
        value: 0
        inSlope: 0
        outSlope: 0
        tangentMode: 10
      - time: 0.26666668
        value: 0
        inSlope: 0
        outSlope: 0
        tangentMode: 10
      - time: 0.33333334
        value: 0
        inSlope: 0
        outSlope: 0
        tangentMode: 10
      - time: 0.4
        value: 0
        inSlope: 0
        outSlope: 0
        tangentMode: 10
      - time: 0.46666667
        value: 0
        inSlope: 0
        outSlope: 0
        tangentMode: 10
      - time: 0.53333336
        value: 0
        inSlope: 0
        outSlope: 0
        tangentMode: 10
      - time: 0.6666667
        value: 0
        inSlope: 0
        outSlope: 0
        tangentMode: 10
      m_PreInfinity: 2
      m_PostInfinity: 2
      m_RotationOrder: 4
    attribute: localEulerAnglesRaw.x
    path: Model
    classID: 4
    script: {fileID: 0}
  - curve:
      serializedVersion: 2
      m_Curve:
      - time: 0
        value: 90
        inSlope: 0
        outSlope: 0
        tangentMode: 10
      - time: 0.06666667
        value: 90
        inSlope: 0
        outSlope: 0
        tangentMode: 10
      - time: 0.13333334
        value: 90
        inSlope: 0
        outSlope: 0
        tangentMode: 10
      - time: 0.2
        value: 90
        inSlope: 0
        outSlope: 0
        tangentMode: 10
      - time: 0.26666668
        value: 90
        inSlope: 0
        outSlope: 0
        tangentMode: 10
      - time: 0.33333334
        value: 90
        inSlope: 0
        outSlope: 0
        tangentMode: 10
      - time: 0.4
        value: 90
        inSlope: 0
        outSlope: 0
        tangentMode: 10
      - time: 0.46666667
        value: 90
        inSlope: 0
        outSlope: 0
        tangentMode: 10
      - time: 0.53333336
        value: 90
        inSlope: 0
        outSlope: 0
        tangentMode: 10
      - time: 0.6666667
        value: 90
        inSlope: 0
        outSlope: 0
        tangentMode: 10
      m_PreInfinity: 2
      m_PostInfinity: 2
      m_RotationOrder: 4
    attribute: localEulerAnglesRaw.y
    path: Model
    classID: 4
    script: {fileID: 0}
  - curve:
      serializedVersion: 2
      m_Curve:
      - time: 0
        value: 0
        inSlope: -267.07648
        outSlope: -267.07648
        tangentMode: 10
      - time: 0.06666667
        value: -17.8051
        inSlope: 0
        outSlope: 0
        tangentMode: 10
      - time: 0.13333334
        value: 0
        inSlope: -0.000015258789
        outSlope: -0.000015258789
        tangentMode: 10
      - time: 0.2
        value: -17.8051
        inSlope: -0.000030517578
        outSlope: -0.000030517578
        tangentMode: 10
      - time: 0.26666668
        value: 0
        inSlope: -0.000030517578
        outSlope: -0.000030517578
        tangentMode: 10
      - time: 0.33333334
        value: -17.8051
        inSlope: 0
        outSlope: 0
        tangentMode: 10
      - time: 0.4
        value: 0
        inSlope: 0
        outSlope: 0
        tangentMode: 10
      - time: 0.46666667
        value: -17.8051
        inSlope: -0.000061035156
        outSlope: -0.000061035156
        tangentMode: 10
      - time: 0.53333336
        value: 0
        inSlope: 133.5382
        outSlope: 133.5382
        tangentMode: 10
      - time: 0.6666667
        value: 0
        inSlope: 0
        outSlope: 0
        tangentMode: 10
      m_PreInfinity: 2
      m_PostInfinity: 2
      m_RotationOrder: 4
    attribute: localEulerAnglesRaw.z
    path: Model
    classID: 4
    script: {fileID: 0}
  m_EulerEditorCurves:
  - curve:
      serializedVersion: 2
      m_Curve: []
      m_PreInfinity: 2
      m_PostInfinity: 2
      m_RotationOrder: 4
    attribute: m_LocalEulerAngles.x
    path: Model
    classID: 4
    script: {fileID: 0}
  - curve:
      serializedVersion: 2
      m_Curve: []
      m_PreInfinity: 2
      m_PostInfinity: 2
      m_RotationOrder: 4
    attribute: m_LocalEulerAngles.y
    path: Model
    classID: 4
    script: {fileID: 0}
  - curve:
      serializedVersion: 2
      m_Curve: []
      m_PreInfinity: 2
      m_PostInfinity: 2
      m_RotationOrder: 4
    attribute: m_LocalEulerAngles.z
    path: Model
    classID: 4
    script: {fileID: 0}
  m_HasGenericRootTransform: 0
  m_HasMotionFloatCurves: 0
  m_GenerateMotionCurves: 0
  m_Events:
  - time: 0
    functionName: ShootBulletAndStartEffect
    data: 
    objectReferenceParameter: {fileID: 0}
    floatParameter: 0
    intParameter: 0
    messageOptions: 0
  - time: 0.13333334
    functionName: ShootBulletAndNothing
    data: 
    objectReferenceParameter: {fileID: 0}
    floatParameter: 0
    intParameter: 0
    messageOptions: 0
  - time: 0.26666668
    functionName: ShootBulletAndNothing
    data: 
    objectReferenceParameter: {fileID: 0}
    floatParameter: 0
    intParameter: 0
    messageOptions: 0
  - time: 0.4
    functionName: ShootBulletAndNothing
    data: 
    objectReferenceParameter: {fileID: 0}
    floatParameter: 0
    intParameter: 0
    messageOptions: 0
  - time: 0.53333336
    functionName: ShootBulletAndNothing
    data: 
    objectReferenceParameter: {fileID: 0}
    floatParameter: 0
    intParameter: 0
    messageOptions: 0
