%YAML 1.1
%TAG !u! tag:unity3d.com,2011:
--- !u!74 &7400000
AnimationClip:
  m_ObjectHideFlags: 0
  m_PrefabParentObject: {fileID: 0}
  m_PrefabInternal: {fileID: 0}
  m_Name: goreFly_front_Finish
  serializedVersion: 6
  m_Legacy: 0
  m_Compressed: 0
  m_UseHighQualityCurve: 1
  m_RotationCurves: []
  m_CompressedRotationCurves: []
  m_EulerCurves:
  - curve:
      serializedVersion: 2
      m_Curve:
      - time: 0
        value: {x: -75.049995, y: 0, z: 0}
        inSlope: {x: 0, y: 0, z: 0}
        outSlope: {x: 0, y: 0, z: 0}
        tangentMode: 0
      - time: 0.14
        value: {x: -75.049995, y: 0, z: 0}
        inSlope: {x: 104.2361, y: 1.0948086, z: -168.08119}
        outSlope: {x: 104.2361, y: 1.0948086, z: -168.08119}
        tangentMode: 0
      - time: 0.26
        value: {x: -52.823574, y: 0.24366504, z: -40.33948}
        inSlope: {x: 243.08495, y: 2.6808774, z: -193.67622}
        outSlope: {x: 243.08495, y: 2.6808774, z: -193.67622}
        tangentMode: 0
      - time: 0.5
        value: {x: 0, y: 0.7882622, z: -74.120865}
        inSlope: {x: 104.63403, y: 0.71583635, z: -93.80282}
        outSlope: {x: 104.63403, y: 0.71583635, z: -93.80282}
        tangentMode: 0
      - time: 1.08
        value: {x: 0.46160173, y: 0.4616633, z: -91.29248}
        inSlope: {x: 0.13565877, y: -1.2657946, z: -0.2613292}
        outSlope: {x: 0.13565877, y: -1.2657946, z: -0.2613292}
        tangentMode: 0
      - time: 1.28
        value: {x: 0.42632297, y: 0.21348767, z: -92.553345}
        inSlope: {x: -0.44079775, y: -1.1474437, z: -16.491379}
        outSlope: {x: -0.44079775, y: -1.1474437, z: -16.491379}
        tangentMode: 0
      - time: 1.54
        value: {x: 0.25938922, y: 0, z: -92.889465}
        inSlope: {x: -0.7627817, y: -0.37897223, z: 27.56613}
        outSlope: {x: -0.7627817, y: -0.37897223, z: 27.56613}
        tangentMode: 0
      - time: 1.68
        value: {x: 0.15283786, y: -0.023580499, z: -85.270424}
        inSlope: {x: -0.73603314, y: -0.00000009035402, z: 85.23795}
        outSlope: {x: -0.73603314, y: -0.00000009035402, z: 85.23795}
        tangentMode: 0
      - time: 1.96
        value: {x: 0, y: 0, z: -47.327347}
        inSlope: {x: -0.26227373, y: 0, z: 169.02628}
        outSlope: {x: -0.26227373, y: 0, z: 169.02628}
        tangentMode: 0
      - time: 2.24
        value: {x: 0, y: 0, z: 0}
        inSlope: {x: 0, y: 0, z: 152.2686}
        outSlope: {x: 0, y: 0, z: 152.2686}
        tangentMode: 0
      m_PreInfinity: 2
      m_PostInfinity: 2
      m_RotationOrder: 4
    path: default
  m_PositionCurves:
  - curve:
      serializedVersion: 2
      m_Curve:
      - time: 0
        value: {x: 0.16762362, y: 24.6, z: 0}
        inSlope: {x: 0, y: 0, z: 0}
        outSlope: {x: 0, y: 0, z: 0}
        tangentMode: 0
      - time: 0.14
        value: {x: 0.16762362, y: 24.6, z: 0}
        inSlope: {x: -0.12698759, y: -24.704685, z: 0}
        outSlope: {x: -0.12698759, y: -24.704685, z: 0}
        tangentMode: 0
      - time: 0.64
        value: {x: 0.03664527, y: -0.10468497, z: 0}
        inSlope: {x: -0.27578086, y: -25.03702, z: 0}
        outSlope: {x: -0.27578086, y: -25.03702, z: 0}
        tangentMode: 0
      - time: 0.74
        value: {x: 0.011698183, y: -0.171152, z: 0}
        inSlope: {x: -0.21831508, y: -0.2621908, z: 0}
        outSlope: {x: -0.21831508, y: -0.2621908, z: 0}
        tangentMode: 0
      - time: 0.8
        value: {x: 0, y: -0.18418734, z: 0}
        inSlope: {x: -0.1698799, y: -0.17362104, z: 0}
        outSlope: {x: -0.1698799, y: -0.17362104, z: 0}
        tangentMode: 0
      - time: 1.54
        value: {x: -0.06348061, y: -0.07267164, z: 0}
        inSlope: {x: 0.032679833, y: 0.27721003, z: 0}
        outSlope: {x: 0.032679833, y: 0.27721003, z: 0}
        tangentMode: 0
      - time: 1.96
        value: {x: 0, y: 0, z: 0}
        inSlope: {x: 0.37490007, y: 0.00512591, z: 0}
        outSlope: {x: 0.37490007, y: 0.00512591, z: 0}
        tangentMode: 0
      - time: 2.24
        value: {x: 0.16762362, y: -0.03153766, z: 0}
        inSlope: {x: 0.29932794, y: -0.34787408, z: 0}
        outSlope: {x: 0.29932794, y: -0.34787408, z: 0}
        tangentMode: 0
      - time: 2.26
        value: {x: 0.17283858, y: -0.039011, z: 0}
        inSlope: {x: 0.22349828, y: -0.40006056, z: 0}
        outSlope: {x: 0.22349828, y: -0.40006056, z: 0}
        tangentMode: 0
      - time: 2.54
        value: {x: 0.16762362, y: -0.22663462, z: 0}
        inSlope: {x: 0, y: -0.6700844, z: 0}
        outSlope: {x: 0, y: -0.6700844, z: 0}
        tangentMode: 0
      m_PreInfinity: 2
      m_PostInfinity: 2
      m_RotationOrder: 4
    path: default
  m_ScaleCurves: []
  m_FloatCurves: []
  m_PPtrCurves: []
  m_SampleRate: 50
  m_WrapMode: 0
  m_Bounds:
    m_Center: {x: 0, y: 0, z: 0}
    m_Extent: {x: 0, y: 0, z: 0}
  m_ClipBindingConstant:
    genericBindings:
    - path: 3814588639
      attribute: 1
      script: {fileID: 0}
      classID: 4
      customType: 0
      isPPtrCurve: 0
    - path: 3814588639
      attribute: 4
      script: {fileID: 0}
      classID: 4
      customType: 14
      isPPtrCurve: 0
    pptrCurveMapping: []
  m_AnimationClipSettings:
    serializedVersion: 2
    m_AdditiveReferencePoseClip: {fileID: 0}
    m_AdditiveReferencePoseTime: 0
    m_StartTime: 0
    m_StopTime: 2.54
    m_OrientationOffsetY: 0
    m_Level: 0
    m_CycleOffset: 0
    m_HasAdditiveReferencePose: 0
    m_LoopTime: 0
    m_LoopBlend: 0
    m_LoopBlendOrientation: 0
    m_LoopBlendPositionY: 0
    m_LoopBlendPositionXZ: 0
    m_KeepOriginalOrientation: 0
    m_KeepOriginalPositionY: 1
    m_KeepOriginalPositionXZ: 0
    m_HeightFromFeet: 0
    m_Mirror: 0
  m_EditorCurves:
  - curve:
      serializedVersion: 2
      m_Curve:
      - time: 0
        value: 0.16762362
        inSlope: 0
        outSlope: 0
        tangentMode: 10
      - time: 0.14
        value: 0.16762362
        inSlope: -0.12698759
        outSlope: -0.12698759
        tangentMode: 10
      - time: 0.8
        value: 0
        inSlope: -0.1698799
        outSlope: -0.1698799
        tangentMode: 10
      - time: 1.54
        value: -0.06348061
        inSlope: 0.032679833
        outSlope: 0.032679833
        tangentMode: 10
      - time: 1.96
        value: 0
        inSlope: 0.37490007
        outSlope: 0.37490007
        tangentMode: 10
      - time: 2.24
        value: 0.16762362
        inSlope: 0.29932794
        outSlope: 0.29932794
        tangentMode: 10
      - time: 2.54
        value: 0.16762362
        inSlope: 0
        outSlope: 0
        tangentMode: 10
      m_PreInfinity: 2
      m_PostInfinity: 2
      m_RotationOrder: 4
    attribute: m_LocalPosition.x
    path: default
    classID: 4
    script: {fileID: 0}
  - curve:
      serializedVersion: 2
      m_Curve:
      - time: 0
        value: 24.6
        inSlope: 0
        outSlope: 0
        tangentMode: 10
      - time: 0.14
        value: 24.6
        inSlope: -24.704685
        outSlope: -24.704685
        tangentMode: 10
      - time: 0.64
        value: -0.10468497
        inSlope: -25.03702
        outSlope: -25.03702
        tangentMode: 10
      - time: 0.74
        value: -0.171152
        inSlope: -0.2621908
        outSlope: -0.2621908
        tangentMode: 10
      - time: 1.96
        value: 0
        inSlope: 0.00512591
        outSlope: 0.00512591
        tangentMode: 10
      - time: 2.26
        value: -0.039011
        inSlope: -0.40006056
        outSlope: -0.40006056
        tangentMode: 10
      - time: 2.54
        value: -0.22663462
        inSlope: -0.6700844
        outSlope: -0.6700844
        tangentMode: 10
      m_PreInfinity: 2
      m_PostInfinity: 2
      m_RotationOrder: 4
    attribute: m_LocalPosition.y
    path: default
    classID: 4
    script: {fileID: 0}
  - curve:
      serializedVersion: 2
      m_Curve:
      - time: 0
        value: 0
        inSlope: 0
        outSlope: 0
        tangentMode: 10
      - time: 0.14
        value: 0
        inSlope: 0
        outSlope: 0
        tangentMode: 10
      - time: 0.8
        value: 0
        inSlope: 0
        outSlope: 0
        tangentMode: 10
      - time: 1.54
        value: 0
        inSlope: 0
        outSlope: 0
        tangentMode: 10
      - time: 1.96
        value: 0
        inSlope: 0
        outSlope: 0
        tangentMode: 10
      - time: 2.24
        value: 0
        inSlope: 0
        outSlope: 0
        tangentMode: 10
      - time: 2.54
        value: 0
        inSlope: 0
        outSlope: 0
        tangentMode: 10
      m_PreInfinity: 2
      m_PostInfinity: 2
      m_RotationOrder: 4
    attribute: m_LocalPosition.z
    path: default
    classID: 4
    script: {fileID: 0}
  - curve:
      serializedVersion: 2
      m_Curve:
      - time: 0
        value: -75.049995
        inSlope: 0
        outSlope: 0
        tangentMode: 10
      - time: 0.14
        value: -75.049995
        inSlope: 104.2361
        outSlope: 104.2361
        tangentMode: 10
      - time: 0.5
        value: 0
        inSlope: 104.63403
        outSlope: 104.63403
        tangentMode: 10
      - time: 1.08
        value: 0.46160173
        inSlope: 0.13565877
        outSlope: 0.13565877
        tangentMode: 10
      - time: 1.96
        value: 0
        inSlope: -0.26227373
        outSlope: -0.26227373
        tangentMode: 10
      - time: 2.24
        value: 0
        inSlope: 0
        outSlope: 0
        tangentMode: 10
      m_PreInfinity: 2
      m_PostInfinity: 2
      m_RotationOrder: 4
    attribute: localEulerAnglesRaw.x
    path: default
    classID: 4
    script: {fileID: 0}
  - curve:
      serializedVersion: 2
      m_Curve:
      - time: 0
        value: 0
        inSlope: 0
        outSlope: 0
        tangentMode: 10
      - time: 0.14
        value: 0
        inSlope: 1.0948086
        outSlope: 1.0948086
        tangentMode: 10
      - time: 0.5
        value: 0.7882622
        inSlope: 0.71583635
        outSlope: 0.71583635
        tangentMode: 10
      - time: 1.54
        value: 0
        inSlope: -0.37897223
        outSlope: -0.37897223
        tangentMode: 10
      - time: 1.96
        value: 0
        inSlope: 0
        outSlope: 0
        tangentMode: 10
      - time: 2.24
        value: 0
        inSlope: 0
        outSlope: 0
        tangentMode: 10
      m_PreInfinity: 2
      m_PostInfinity: 2
      m_RotationOrder: 4
    attribute: localEulerAnglesRaw.y
    path: default
    classID: 4
    script: {fileID: 0}
  - curve:
      serializedVersion: 2
      m_Curve:
      - time: 0
        value: 0
        inSlope: 0
        outSlope: 0
        tangentMode: 10
      - time: 0.14
        value: 0
        inSlope: -168.08119
        outSlope: -168.08119
        tangentMode: 10
      - time: 0.26
        value: -40.33948
        inSlope: -193.67622
        outSlope: -193.67622
        tangentMode: 10
      - time: 1.28
        value: -92.553345
        inSlope: -16.491379
        outSlope: -16.491379
        tangentMode: 10
      - time: 1.68
        value: -85.270424
        inSlope: 85.23795
        outSlope: 85.23795
        tangentMode: 10
      - time: 2.24
        value: 0
        inSlope: 152.2686
        outSlope: 152.2686
        tangentMode: 10
      m_PreInfinity: 2
      m_PostInfinity: 2
      m_RotationOrder: 4
    attribute: localEulerAnglesRaw.z
    path: default
    classID: 4
    script: {fileID: 0}
  m_EulerEditorCurves:
  - curve:
      serializedVersion: 2
      m_Curve: []
      m_PreInfinity: 2
      m_PostInfinity: 2
      m_RotationOrder: 4
    attribute: m_LocalEulerAngles.x
    path: default
    classID: 4
    script: {fileID: 0}
  - curve:
      serializedVersion: 2
      m_Curve: []
      m_PreInfinity: 2
      m_PostInfinity: 2
      m_RotationOrder: 4
    attribute: m_LocalEulerAngles.y
    path: default
    classID: 4
    script: {fileID: 0}
  - curve:
      serializedVersion: 2
      m_Curve: []
      m_PreInfinity: 2
      m_PostInfinity: 2
      m_RotationOrder: 4
    attribute: m_LocalEulerAngles.z
    path: default
    classID: 4
    script: {fileID: 0}
  m_HasGenericRootTransform: 0
  m_HasMotionFloatCurves: 0
  m_GenerateMotionCurves: 0
  m_Events: []
