%YAML 1.1
%TAG !u! tag:unity3d.com,2011:
--- !u!74 &7400000
AnimationClip:
  m_ObjectHideFlags: 0
  m_PrefabParentObject: {fileID: 0}
  m_PrefabInternal: {fileID: 0}
  m_Name: gore
  serializedVersion: 6
  m_Legacy: 0
  m_Compressed: 0
  m_UseHighQualityCurve: 1
  m_RotationCurves: []
  m_CompressedRotationCurves: []
  m_EulerCurves:
  - curve:
      serializedVersion: 2
      m_Curve:
      - time: 0
        value: {x: 0, y: 0, z: 0}
        inSlope: {x: 264.8361, y: 0, z: 0}
        outSlope: {x: 264.8361, y: 0, z: 0}
        tangentMode: 0
      - time: 0.18
        value: {x: 47.670498, y: 0, z: 0}
        inSlope: {x: -37.833755, y: 0, z: 0}
        outSlope: {x: -37.833755, y: 0, z: 0}
        tangentMode: 0
      - time: 0.32
        value: {x: 0, y: 0, z: 0}
        inSlope: {x: -340.5036, y: 0, z: 0}
        outSlope: {x: -340.5036, y: 0, z: 0}
        tangentMode: 0
      m_PreInfinity: 2
      m_PostInfinity: 2
      m_RotationOrder: 4
    path: default
  m_PositionCurves:
  - curve:
      serializedVersion: 2
      m_Curve:
      - time: 0
        value: {x: 0, y: 0, z: 0}
        inSlope: {x: 0.0021616616, y: 62.222218, z: 102.7615}
        outSlope: {x: 0.0021616616, y: 62.222218, z: 102.7615}
        tangentMode: 0
      - time: 0.18
        value: {x: 0.00038909912, y: 11.2, z: 18.49707}
        inSlope: {x: -0.0003088091, y: -8.888895, z: -14.680225}
        outSlope: {x: -0.0003088091, y: -8.888895, z: -14.680225}
        tangentMode: 0
      - time: 0.32
        value: {x: 0, y: 0, z: 0}
        inSlope: {x: -0.0027792798, y: -80.00001, z: -132.12195}
        outSlope: {x: -0.0027792798, y: -80.00001, z: -132.12195}
        tangentMode: 0
      m_PreInfinity: 2
      m_PostInfinity: 2
      m_RotationOrder: 4
    path: default
  m_ScaleCurves: []
  m_FloatCurves: []
  m_PPtrCurves: []
  m_SampleRate: 50
  m_WrapMode: 0
  m_Bounds:
    m_Center: {x: 0, y: 0, z: 0}
    m_Extent: {x: 0, y: 0, z: 0}
  m_ClipBindingConstant:
    genericBindings:
    - path: 3814588639
      attribute: 1
      script: {fileID: 0}
      classID: 4
      customType: 0
      isPPtrCurve: 0
    - path: 3814588639
      attribute: 4
      script: {fileID: 0}
      classID: 4
      customType: 14
      isPPtrCurve: 0
    pptrCurveMapping: []
  m_AnimationClipSettings:
    serializedVersion: 2
    m_AdditiveReferencePoseClip: {fileID: 0}
    m_AdditiveReferencePoseTime: 0
    m_StartTime: 0
    m_StopTime: 0.32
    m_OrientationOffsetY: 0
    m_Level: 0
    m_CycleOffset: 0
    m_HasAdditiveReferencePose: 0
    m_LoopTime: 0
    m_LoopBlend: 0
    m_LoopBlendOrientation: 0
    m_LoopBlendPositionY: 0
    m_LoopBlendPositionXZ: 0
    m_KeepOriginalOrientation: 0
    m_KeepOriginalPositionY: 1
    m_KeepOriginalPositionXZ: 0
    m_HeightFromFeet: 0
    m_Mirror: 0
  m_EditorCurves:
  - curve:
      serializedVersion: 2
      m_Curve:
      - time: 0
        value: 0
        inSlope: 264.8361
        outSlope: 264.8361
        tangentMode: 10
      - time: 0.18
        value: 47.670498
        inSlope: -37.833755
        outSlope: -37.833755
        tangentMode: 10
      - time: 0.32
        value: 0
        inSlope: -340.5036
        outSlope: -340.5036
        tangentMode: 10
      m_PreInfinity: 2
      m_PostInfinity: 2
      m_RotationOrder: 4
    attribute: localEulerAnglesRaw.x
    path: default
    classID: 4
    script: {fileID: 0}
  - curve:
      serializedVersion: 2
      m_Curve:
      - time: 0
        value: 0
        inSlope: 0
        outSlope: 0
        tangentMode: 10
      - time: 0.18
        value: 0
        inSlope: 0
        outSlope: 0
        tangentMode: 10
      - time: 0.32
        value: 0
        inSlope: 0
        outSlope: 0
        tangentMode: 10
      m_PreInfinity: 2
      m_PostInfinity: 2
      m_RotationOrder: 4
    attribute: localEulerAnglesRaw.y
    path: default
    classID: 4
    script: {fileID: 0}
  - curve:
      serializedVersion: 2
      m_Curve:
      - time: 0
        value: 0
        inSlope: 0
        outSlope: 0
        tangentMode: 10
      - time: 0.18
        value: 0
        inSlope: 0
        outSlope: 0
        tangentMode: 10
      - time: 0.32
        value: 0
        inSlope: 0
        outSlope: 0
        tangentMode: 10
      m_PreInfinity: 2
      m_PostInfinity: 2
      m_RotationOrder: 4
    attribute: localEulerAnglesRaw.z
    path: default
    classID: 4
    script: {fileID: 0}
  - curve:
      serializedVersion: 2
      m_Curve:
      - time: 0
        value: 0
        inSlope: 0.0021616616
        outSlope: 0.0021616616
        tangentMode: 10
      - time: 0.18
        value: 0.00038909912
        inSlope: -0.0003088091
        outSlope: -0.0003088091
        tangentMode: 10
      - time: 0.32
        value: 0
        inSlope: -0.0027792798
        outSlope: -0.0027792798
        tangentMode: 10
      m_PreInfinity: 2
      m_PostInfinity: 2
      m_RotationOrder: 4
    attribute: m_LocalPosition.x
    path: default
    classID: 4
    script: {fileID: 0}
  - curve:
      serializedVersion: 2
      m_Curve:
      - time: 0
        value: 0
        inSlope: 62.222218
        outSlope: 62.222218
        tangentMode: 10
      - time: 0.18
        value: 11.2
        inSlope: -8.888895
        outSlope: -8.888895
        tangentMode: 10
      - time: 0.32
        value: 0
        inSlope: -80.00001
        outSlope: -80.00001
        tangentMode: 10
      m_PreInfinity: 2
      m_PostInfinity: 2
      m_RotationOrder: 4
    attribute: m_LocalPosition.y
    path: default
    classID: 4
    script: {fileID: 0}
  - curve:
      serializedVersion: 2
      m_Curve:
      - time: 0
        value: 0
        inSlope: 102.7615
        outSlope: 102.7615
        tangentMode: 10
      - time: 0.18
        value: 18.49707
        inSlope: -14.680225
        outSlope: -14.680225
        tangentMode: 10
      - time: 0.32
        value: 0
        inSlope: -132.12195
        outSlope: -132.12195
        tangentMode: 10
      m_PreInfinity: 2
      m_PostInfinity: 2
      m_RotationOrder: 4
    attribute: m_LocalPosition.z
    path: default
    classID: 4
    script: {fileID: 0}
  m_EulerEditorCurves:
  - curve:
      serializedVersion: 2
      m_Curve: []
      m_PreInfinity: 2
      m_PostInfinity: 2
      m_RotationOrder: 4
    attribute: m_LocalEulerAngles.x
    path: default
    classID: 4
    script: {fileID: 0}
  - curve:
      serializedVersion: 2
      m_Curve: []
      m_PreInfinity: 2
      m_PostInfinity: 2
      m_RotationOrder: 4
    attribute: m_LocalEulerAngles.y
    path: default
    classID: 4
    script: {fileID: 0}
  - curve:
      serializedVersion: 2
      m_Curve: []
      m_PreInfinity: 2
      m_PostInfinity: 2
      m_RotationOrder: 4
    attribute: m_LocalEulerAngles.z
    path: default
    classID: 4
    script: {fileID: 0}
  m_HasGenericRootTransform: 0
  m_HasMotionFloatCurves: 0
  m_GenerateMotionCurves: 0
  m_Events: []
