%YAML 1.1
%TAG !u! tag:unity3d.com,2011:
--- !u!74 &7400000
AnimationClip:
  m_ObjectHideFlags: 0
  m_PrefabParentObject: {fileID: 0}
  m_PrefabInternal: {fileID: 0}
  m_Name: rushToBite1
  serializedVersion: 6
  m_Legacy: 0
  m_Compressed: 0
  m_UseHighQualityCurve: 1
  m_RotationCurves: []
  m_CompressedRotationCurves: []
  m_EulerCurves:
  - curve:
      serializedVersion: 2
      m_Curve:
      - time: 0
        value: {x: -0.37539998, y: 0, z: 0}
        inSlope: {x: -51.49896, y: 0, z: 0}
        outSlope: {x: -51.49896, y: 0, z: 0}
        tangentMode: 0
      - time: 0.41666666
        value: {x: -21.8333, y: 0, z: 0}
        inSlope: {x: 45.250305, y: 0, z: 0}
        outSlope: {x: 45.250305, y: 0, z: 0}
        tangentMode: 0
      - time: 0.5
        value: {x: -10, y: 0, z: 0}
        inSlope: {x: 141.99957, y: 0, z: 0}
        outSlope: {x: 141.99957, y: 0, z: 0}
        tangentMode: 0
      m_PreInfinity: 2
      m_PostInfinity: 2
      m_RotationOrder: 4
    path: default
  m_PositionCurves:
  - curve:
      serializedVersion: 2
      m_Curve:
      - time: 0
        value: {x: 0, y: -1.7114172, z: 0}
        inSlope: {x: 0, y: 0, z: -61.51579}
        outSlope: {x: 0, y: 0, z: -61.51579}
        tangentMode: 0
      - time: 0.31666666
        value: {x: 0, y: -1.7114172, z: -19.48}
        inSlope: {x: 0, y: 5.725351, z: 54.907738}
        outSlope: {x: 0, y: 5.725351, z: 54.907738}
        tangentMode: 0
      - time: 0.41666666
        value: {x: 0, y: -0.5663471, z: -2.346875}
        inSlope: {x: 0, y: 41.52343, z: 129.74689}
        outSlope: {x: 0, y: 41.52343, z: 129.74689}
        tangentMode: 0
      - time: 0.5
        value: {x: 0, y: 5.4, z: 5}
        inSlope: {x: 0, y: 71.59616, z: 88.16249}
        outSlope: {x: 0, y: 71.59616, z: 88.16249}
        tangentMode: 0
      m_PreInfinity: 2
      m_PostInfinity: 2
      m_RotationOrder: 4
    path: default
  m_ScaleCurves: []
  m_FloatCurves: []
  m_PPtrCurves: []
  m_SampleRate: 60
  m_WrapMode: 0
  m_Bounds:
    m_Center: {x: 0, y: 0, z: 0}
    m_Extent: {x: 0, y: 0, z: 0}
  m_ClipBindingConstant:
    genericBindings:
    - path: 3814588639
      attribute: 1
      script: {fileID: 0}
      classID: 4
      customType: 0
      isPPtrCurve: 0
    - path: 3814588639
      attribute: 4
      script: {fileID: 0}
      classID: 4
      customType: 14
      isPPtrCurve: 0
    pptrCurveMapping: []
  m_AnimationClipSettings:
    serializedVersion: 2
    m_AdditiveReferencePoseClip: {fileID: 0}
    m_AdditiveReferencePoseTime: 0
    m_StartTime: 0
    m_StopTime: 0.5
    m_OrientationOffsetY: 0
    m_Level: 0
    m_CycleOffset: 0
    m_HasAdditiveReferencePose: 0
    m_LoopTime: 0
    m_LoopBlend: 0
    m_LoopBlendOrientation: 0
    m_LoopBlendPositionY: 0
    m_LoopBlendPositionXZ: 0
    m_KeepOriginalOrientation: 0
    m_KeepOriginalPositionY: 1
    m_KeepOriginalPositionXZ: 0
    m_HeightFromFeet: 0
    m_Mirror: 0
  m_EditorCurves:
  - curve:
      serializedVersion: 2
      m_Curve:
      - time: 0
        value: 0
        inSlope: 0
        outSlope: 0
        tangentMode: 10
      - time: 0.31666666
        value: 0
        inSlope: 0
        outSlope: 0
        tangentMode: 10
      - time: 0.41666666
        value: 0
        inSlope: 0
        outSlope: 0
        tangentMode: 10
      - time: 0.5
        value: 0
        inSlope: 0
        outSlope: 0
        tangentMode: 10
      m_PreInfinity: 2
      m_PostInfinity: 2
      m_RotationOrder: 4
    attribute: m_LocalPosition.x
    path: default
    classID: 4
    script: {fileID: 0}
  - curve:
      serializedVersion: 2
      m_Curve:
      - time: 0
        value: -1.7114172
        inSlope: 0
        outSlope: 0
        tangentMode: 10
      - time: 0.31666666
        value: -1.7114172
        inSlope: 5.725351
        outSlope: 5.725351
        tangentMode: 10
      - time: 0.41666666
        value: -0.5663471
        inSlope: 41.52343
        outSlope: 41.52343
        tangentMode: 10
      - time: 0.5
        value: 5.4
        inSlope: 71.59616
        outSlope: 71.59616
        tangentMode: 10
      m_PreInfinity: 2
      m_PostInfinity: 2
      m_RotationOrder: 4
    attribute: m_LocalPosition.y
    path: default
    classID: 4
    script: {fileID: 0}
  - curve:
      serializedVersion: 2
      m_Curve:
      - time: 0
        value: 0
        inSlope: -61.51579
        outSlope: -61.51579
        tangentMode: 10
      - time: 0.31666666
        value: -19.48
        inSlope: 54.907738
        outSlope: 54.907738
        tangentMode: 10
      - time: 0.41666666
        value: -2.346875
        inSlope: 129.74689
        outSlope: 129.74689
        tangentMode: 10
      - time: 0.5
        value: 5
        inSlope: 88.16249
        outSlope: 88.16249
        tangentMode: 10
      m_PreInfinity: 2
      m_PostInfinity: 2
      m_RotationOrder: 4
    attribute: m_LocalPosition.z
    path: default
    classID: 4
    script: {fileID: 0}
  - curve:
      serializedVersion: 2
      m_Curve:
      - time: 0
        value: -0.37539998
        inSlope: -51.49896
        outSlope: -51.49896
        tangentMode: 10
      - time: 0.41666666
        value: -21.8333
        inSlope: 45.250305
        outSlope: 45.250305
        tangentMode: 10
      - time: 0.5
        value: -10
        inSlope: 141.99957
        outSlope: 141.99957
        tangentMode: 10
      m_PreInfinity: 2
      m_PostInfinity: 2
      m_RotationOrder: 4
    attribute: localEulerAnglesRaw.x
    path: default
    classID: 4
    script: {fileID: 0}
  - curve:
      serializedVersion: 2
      m_Curve:
      - time: 0
        value: 0
        inSlope: 0
        outSlope: 0
        tangentMode: 10
      - time: 0.41666666
        value: 0
        inSlope: 0
        outSlope: 0
        tangentMode: 10
      - time: 0.5
        value: 0
        inSlope: 0
        outSlope: 0
        tangentMode: 10
      m_PreInfinity: 2
      m_PostInfinity: 2
      m_RotationOrder: 4
    attribute: localEulerAnglesRaw.y
    path: default
    classID: 4
    script: {fileID: 0}
  - curve:
      serializedVersion: 2
      m_Curve:
      - time: 0
        value: 0
        inSlope: 0
        outSlope: 0
        tangentMode: 10
      - time: 0.41666666
        value: 0
        inSlope: 0
        outSlope: 0
        tangentMode: 10
      - time: 0.5
        value: 0
        inSlope: 0
        outSlope: 0
        tangentMode: 10
      m_PreInfinity: 2
      m_PostInfinity: 2
      m_RotationOrder: 4
    attribute: localEulerAnglesRaw.z
    path: default
    classID: 4
    script: {fileID: 0}
  m_EulerEditorCurves:
  - curve:
      serializedVersion: 2
      m_Curve: []
      m_PreInfinity: 2
      m_PostInfinity: 2
      m_RotationOrder: 4
    attribute: m_LocalEulerAngles.x
    path: default
    classID: 4
    script: {fileID: 0}
  - curve:
      serializedVersion: 2
      m_Curve: []
      m_PreInfinity: 2
      m_PostInfinity: 2
      m_RotationOrder: 4
    attribute: m_LocalEulerAngles.y
    path: default
    classID: 4
    script: {fileID: 0}
  - curve:
      serializedVersion: 2
      m_Curve: []
      m_PreInfinity: 2
      m_PostInfinity: 2
      m_RotationOrder: 4
    attribute: m_LocalEulerAngles.z
    path: default
    classID: 4
    script: {fileID: 0}
  m_HasGenericRootTransform: 0
  m_HasMotionFloatCurves: 0
  m_GenerateMotionCurves: 0
  m_Events: []
