%YAML 1.1
%TAG !u! tag:unity3d.com,2011:
--- !u!74 &7400000
AnimationClip:
  m_ObjectHideFlags: 0
  m_PrefabParentObject: {fileID: 0}
  m_PrefabInternal: {fileID: 0}
  m_Name: struggle1
  serializedVersion: 6
  m_Legacy: 0
  m_Compressed: 0
  m_UseHighQualityCurve: 1
  m_RotationCurves: []
  m_CompressedRotationCurves: []
  m_EulerCurves:
  - curve:
      serializedVersion: 2
      m_Curve:
      - time: 0
        value: {x: 0, y: 0.6989, z: 0}
        inSlope: {x: -99.9864, y: -4.1934, z: 0}
        outSlope: {x: -99.9864, y: -4.1934, z: 0}
        tangentMode: 0
      - time: 0.16666667
        value: {x: -16.6644, y: 0, z: 0}
        inSlope: {x: -16.664394, y: -2.0967, z: 0}
        outSlope: {x: -16.664394, y: -2.0967, z: 0}
        tangentMode: 0
      - time: 0.41666666
        value: {x: 0, y: 0, z: 0}
        inSlope: {x: 33.328804, y: 4.1933994, z: 0}
        outSlope: {x: 33.328804, y: 4.1933994, z: 0}
        tangentMode: 0
      - time: 0.5
        value: {x: 0, y: 0.6989, z: 0}
        inSlope: {x: 0, y: 14.303402, z: 0}
        outSlope: {x: 0, y: 14.303402, z: 0}
        tangentMode: 0
      - time: 0.6666666
        value: {x: 0, y: 4.0689, z: 0}
        inSlope: {x: 0, y: 3.3700023, z: 0}
        outSlope: {x: 0, y: 3.3700023, z: 0}
        tangentMode: 0
      - time: 0.9166666
        value: {x: 0, y: 0.6989, z: 0}
        inSlope: {x: 0, y: -12.4274025, z: 0}
        outSlope: {x: 0, y: -12.4274025, z: 0}
        tangentMode: 0
      - time: 1.1666665
        value: {x: 0, y: -2.1448, z: 0}
        inSlope: {x: 0, y: -0.000002861023, z: 0}
        outSlope: {x: 0, y: -0.000002861023, z: 0}
        tangentMode: 0
      - time: 1.4166665
        value: {x: 0, y: 0.6989, z: 0}
        inSlope: {x: 0, y: 5.6874, z: 0}
        outSlope: {x: 0, y: 5.6874, z: 0}
        tangentMode: 0
      - time: 1.5
        value: {x: 0, y: 0.6989, z: 0}
        inSlope: {x: 0, y: 10.1100025, z: 0}
        outSlope: {x: 0, y: 10.1100025, z: 0}
        tangentMode: 0
      - time: 1.6666666
        value: {x: 0, y: 4.0689, z: 0}
        inSlope: {x: 0, y: 3.3700023, z: 0}
        outSlope: {x: 0, y: 3.3700023, z: 0}
        tangentMode: 0
      - time: 1.9166666
        value: {x: 0, y: 0.6989, z: 0}
        inSlope: {x: 0, y: -12.4274025, z: 0}
        outSlope: {x: 0, y: -12.4274025, z: 0}
        tangentMode: 0
      - time: 2.1666665
        value: {x: 0, y: -2.1448, z: 0}
        inSlope: {x: 0, y: -0.000008106232, z: 0}
        outSlope: {x: 0, y: -0.000008106232, z: 0}
        tangentMode: 0
      - time: 2.4166667
        value: {x: 0, y: 0.6989, z: 0}
        inSlope: {x: 0, y: 11.374789, z: 0}
        outSlope: {x: 0, y: 11.374789, z: 0}
        tangentMode: 0
      m_PreInfinity: 2
      m_PostInfinity: 2
      m_RotationOrder: 4
    path: default
  m_PositionCurves:
  - curve:
      serializedVersion: 2
      m_Curve:
      - time: 0
        value: {x: -0.012271413, y: 0, z: 0}
        inSlope: {x: -1.2638196, y: 0, z: 0}
        outSlope: {x: -1.2638196, y: 0, z: 0}
        tangentMode: 0
      - time: 0.16666667
        value: {x: -0.22290802, y: 0, z: 0}
        inSlope: {x: -0.6318669, y: 0, z: 0}
        outSlope: {x: -0.6318669, y: 0, z: 0}
        tangentMode: 0
      - time: 0.41666666
        value: {x: -0.22288656, y: 0, z: 0}
        inSlope: {x: 1.2637336, y: 0, z: 0}
        outSlope: {x: 1.2637336, y: 0, z: 0}
        tangentMode: 0
      - time: 0.5
        value: {x: -0.012271413, y: 0, z: 0}
        inSlope: {x: 0.398506, y: 0, z: 0}
        outSlope: {x: 0.398506, y: 0, z: 0}
        tangentMode: 0
      - time: 0.6666666
        value: {x: -0.30066624, y: 0, z: 0}
        inSlope: {x: -0.28839505, y: 0, z: 0}
        outSlope: {x: -0.28839505, y: 0, z: 0}
        tangentMode: 0
      - time: 0.9166666
        value: {x: -0.012271413, y: 0, z: 0}
        inSlope: {x: 0.04870248, y: 0, z: 0}
        outSlope: {x: 0.04870248, y: 0, z: 0}
        tangentMode: 0
      - time: 1.1666665
        value: {x: -0.27631488, y: 0, z: 0}
        inSlope: {x: -0.00000023841858, y: 0, z: 0}
        outSlope: {x: -0.00000023841858, y: 0, z: 0}
        tangentMode: 0
      - time: 1.4166665
        value: {x: -0.012271413, y: 0, z: 0}
        inSlope: {x: 0.52808696, y: 0, z: 0}
        outSlope: {x: 0.52808696, y: 0, z: 0}
        tangentMode: 0
      - time: 1.5
        value: {x: -0.012271413, y: 0, z: 0}
        inSlope: {x: -0.8651847, y: 0, z: 0}
        outSlope: {x: -0.8651847, y: 0, z: 0}
        tangentMode: 0
      - time: 1.6666666
        value: {x: -0.30066624, y: 0, z: 0}
        inSlope: {x: -0.28839505, y: 0, z: 0}
        outSlope: {x: -0.28839505, y: 0, z: 0}
        tangentMode: 0
      - time: 1.9166666
        value: {x: -0.012271413, y: 0, z: 0}
        inSlope: {x: 0.04870248, y: 0, z: 0}
        outSlope: {x: 0.04870248, y: 0, z: 0}
        tangentMode: 0
      - time: 2.1666665
        value: {x: -0.27631488, y: 0, z: 0}
        inSlope: {x: -0.00000071525574, y: 0, z: 0}
        outSlope: {x: -0.00000071525574, y: 0, z: 0}
        tangentMode: 0
      - time: 2.4166667
        value: {x: -0.012271413, y: 0, z: 0}
        inSlope: {x: 1.056173, y: 0, z: 0}
        outSlope: {x: 1.056173, y: 0, z: 0}
        tangentMode: 0
      m_PreInfinity: 2
      m_PostInfinity: 2
      m_RotationOrder: 4
    path: default
  m_ScaleCurves: []
  m_FloatCurves: []
  m_PPtrCurves: []
  m_SampleRate: 12
  m_WrapMode: 0
  m_Bounds:
    m_Center: {x: 0, y: 0, z: 0}
    m_Extent: {x: 0, y: 0, z: 0}
  m_ClipBindingConstant:
    genericBindings:
    - path: 3814588639
      attribute: 1
      script: {fileID: 0}
      classID: 4
      customType: 0
      isPPtrCurve: 0
    - path: 3814588639
      attribute: 4
      script: {fileID: 0}
      classID: 4
      customType: 14
      isPPtrCurve: 0
    pptrCurveMapping: []
  m_AnimationClipSettings:
    serializedVersion: 2
    m_AdditiveReferencePoseClip: {fileID: 0}
    m_AdditiveReferencePoseTime: 0
    m_StartTime: 0
    m_StopTime: 2.4166667
    m_OrientationOffsetY: 0
    m_Level: 0
    m_CycleOffset: 0
    m_HasAdditiveReferencePose: 0
    m_LoopTime: 0
    m_LoopBlend: 0
    m_LoopBlendOrientation: 0
    m_LoopBlendPositionY: 0
    m_LoopBlendPositionXZ: 0
    m_KeepOriginalOrientation: 0
    m_KeepOriginalPositionY: 1
    m_KeepOriginalPositionXZ: 0
    m_HeightFromFeet: 0
    m_Mirror: 0
  m_EditorCurves:
  - curve:
      serializedVersion: 2
      m_Curve:
      - time: 0
        value: 0
        inSlope: -99.9864
        outSlope: -99.9864
        tangentMode: 10
      - time: 0.16666667
        value: -16.6644
        inSlope: -16.664394
        outSlope: -16.664394
        tangentMode: 10
      - time: 0.41666666
        value: 0
        inSlope: 33.328804
        outSlope: 33.328804
        tangentMode: 10
      - time: 0.5
        value: 0
        inSlope: 0
        outSlope: 0
        tangentMode: 10
      - time: 0.6666666
        value: 0
        inSlope: 0
        outSlope: 0
        tangentMode: 10
      - time: 0.9166666
        value: 0
        inSlope: 0
        outSlope: 0
        tangentMode: 10
      - time: 1.1666665
        value: 0
        inSlope: 0
        outSlope: 0
        tangentMode: 10
      - time: 1.4166665
        value: 0
        inSlope: 0
        outSlope: 0
        tangentMode: 10
      - time: 1.5
        value: 0
        inSlope: 0
        outSlope: 0
        tangentMode: 10
      - time: 1.6666666
        value: 0
        inSlope: 0
        outSlope: 0
        tangentMode: 10
      - time: 1.9166666
        value: 0
        inSlope: 0
        outSlope: 0
        tangentMode: 10
      - time: 2.1666665
        value: 0
        inSlope: 0
        outSlope: 0
        tangentMode: 10
      - time: 2.4166667
        value: 0
        inSlope: 0
        outSlope: 0
        tangentMode: 10
      m_PreInfinity: 2
      m_PostInfinity: 2
      m_RotationOrder: 4
    attribute: localEulerAnglesRaw.x
    path: default
    classID: 4
    script: {fileID: 0}
  - curve:
      serializedVersion: 2
      m_Curve:
      - time: 0
        value: 0.6989
        inSlope: -4.1934
        outSlope: -4.1934
        tangentMode: 10
      - time: 0.16666667
        value: 0
        inSlope: -2.0967
        outSlope: -2.0967
        tangentMode: 10
      - time: 0.41666666
        value: 0
        inSlope: 4.1933994
        outSlope: 4.1933994
        tangentMode: 10
      - time: 0.5
        value: 0.6989
        inSlope: 14.303402
        outSlope: 14.303402
        tangentMode: 10
      - time: 0.6666666
        value: 4.0689
        inSlope: 3.3700023
        outSlope: 3.3700023
        tangentMode: 10
      - time: 0.9166666
        value: 0.6989
        inSlope: -12.4274025
        outSlope: -12.4274025
        tangentMode: 10
      - time: 1.1666665
        value: -2.1448
        inSlope: -0.000002861023
        outSlope: -0.000002861023
        tangentMode: 10
      - time: 1.4166665
        value: 0.6989
        inSlope: 5.6874
        outSlope: 5.6874
        tangentMode: 10
      - time: 1.5
        value: 0.6989
        inSlope: 10.1100025
        outSlope: 10.1100025
        tangentMode: 10
      - time: 1.6666666
        value: 4.0689
        inSlope: 3.3700023
        outSlope: 3.3700023
        tangentMode: 10
      - time: 1.9166666
        value: 0.6989
        inSlope: -12.4274025
        outSlope: -12.4274025
        tangentMode: 10
      - time: 2.1666665
        value: -2.1448
        inSlope: -0.000008106232
        outSlope: -0.000008106232
        tangentMode: 10
      - time: 2.4166667
        value: 0.6989
        inSlope: 11.374789
        outSlope: 11.374789
        tangentMode: 10
      m_PreInfinity: 2
      m_PostInfinity: 2
      m_RotationOrder: 4
    attribute: localEulerAnglesRaw.y
    path: default
    classID: 4
    script: {fileID: 0}
  - curve:
      serializedVersion: 2
      m_Curve:
      - time: 0
        value: 0
        inSlope: 0
        outSlope: 0
        tangentMode: 10
      - time: 0.16666667
        value: 0
        inSlope: 0
        outSlope: 0
        tangentMode: 10
      - time: 0.41666666
        value: 0
        inSlope: 0
        outSlope: 0
        tangentMode: 10
      - time: 0.5
        value: 0
        inSlope: 0
        outSlope: 0
        tangentMode: 10
      - time: 0.6666666
        value: 0
        inSlope: 0
        outSlope: 0
        tangentMode: 10
      - time: 0.9166666
        value: 0
        inSlope: 0
        outSlope: 0
        tangentMode: 10
      - time: 1.1666665
        value: 0
        inSlope: 0
        outSlope: 0
        tangentMode: 10
      - time: 1.4166665
        value: 0
        inSlope: 0
        outSlope: 0
        tangentMode: 10
      - time: 1.5
        value: 0
        inSlope: 0
        outSlope: 0
        tangentMode: 10
      - time: 1.6666666
        value: 0
        inSlope: 0
        outSlope: 0
        tangentMode: 10
      - time: 1.9166666
        value: 0
        inSlope: 0
        outSlope: 0
        tangentMode: 10
      - time: 2.1666665
        value: 0
        inSlope: 0
        outSlope: 0
        tangentMode: 10
      - time: 2.4166667
        value: 0
        inSlope: 0
        outSlope: 0
        tangentMode: 10
      m_PreInfinity: 2
      m_PostInfinity: 2
      m_RotationOrder: 4
    attribute: localEulerAnglesRaw.z
    path: default
    classID: 4
    script: {fileID: 0}
  - curve:
      serializedVersion: 2
      m_Curve:
      - time: 0
        value: -0.012271413
        inSlope: -1.2638196
        outSlope: -1.2638196
        tangentMode: 10
      - time: 0.16666667
        value: -0.22290802
        inSlope: -0.6318669
        outSlope: -0.6318669
        tangentMode: 10
      - time: 0.41666666
        value: -0.22288656
        inSlope: 1.2637336
        outSlope: 1.2637336
        tangentMode: 10
      - time: 0.5
        value: -0.012271413
        inSlope: 0.398506
        outSlope: 0.398506
        tangentMode: 10
      - time: 0.6666666
        value: -0.30066624
        inSlope: -0.28839505
        outSlope: -0.28839505
        tangentMode: 10
      - time: 0.9166666
        value: -0.012271413
        inSlope: 0.04870248
        outSlope: 0.04870248
        tangentMode: 10
      - time: 1.1666665
        value: -0.27631488
        inSlope: -0.00000023841858
        outSlope: -0.00000023841858
        tangentMode: 10
      - time: 1.4166665
        value: -0.012271413
        inSlope: 0.52808696
        outSlope: 0.52808696
        tangentMode: 10
      - time: 1.5
        value: -0.012271413
        inSlope: -0.8651847
        outSlope: -0.8651847
        tangentMode: 10
      - time: 1.6666666
        value: -0.30066624
        inSlope: -0.28839505
        outSlope: -0.28839505
        tangentMode: 10
      - time: 1.9166666
        value: -0.012271413
        inSlope: 0.04870248
        outSlope: 0.04870248
        tangentMode: 10
      - time: 2.1666665
        value: -0.27631488
        inSlope: -0.00000071525574
        outSlope: -0.00000071525574
        tangentMode: 10
      - time: 2.4166667
        value: -0.012271413
        inSlope: 1.056173
        outSlope: 1.056173
        tangentMode: 10
      m_PreInfinity: 2
      m_PostInfinity: 2
      m_RotationOrder: 4
    attribute: m_LocalPosition.x
    path: default
    classID: 4
    script: {fileID: 0}
  - curve:
      serializedVersion: 2
      m_Curve:
      - time: 0
        value: 0
        inSlope: 0
        outSlope: 0
        tangentMode: 10
      - time: 0.16666667
        value: 0
        inSlope: 0
        outSlope: 0
        tangentMode: 10
      m_PreInfinity: 2
      m_PostInfinity: 2
      m_RotationOrder: 4
    attribute: m_LocalPosition.y
    path: default
    classID: 4
    script: {fileID: 0}
  - curve:
      serializedVersion: 2
      m_Curve:
      - time: 0
        value: 0
        inSlope: 0
        outSlope: 0
        tangentMode: 10
      - time: 0.16666667
        value: 0
        inSlope: 0
        outSlope: 0
        tangentMode: 10
      m_PreInfinity: 2
      m_PostInfinity: 2
      m_RotationOrder: 4
    attribute: m_LocalPosition.z
    path: default
    classID: 4
    script: {fileID: 0}
  m_EulerEditorCurves:
  - curve:
      serializedVersion: 2
      m_Curve: []
      m_PreInfinity: 2
      m_PostInfinity: 2
      m_RotationOrder: 4
    attribute: m_LocalEulerAngles.x
    path: default
    classID: 4
    script: {fileID: 0}
  - curve:
      serializedVersion: 2
      m_Curve: []
      m_PreInfinity: 2
      m_PostInfinity: 2
      m_RotationOrder: 4
    attribute: m_LocalEulerAngles.y
    path: default
    classID: 4
    script: {fileID: 0}
  - curve:
      serializedVersion: 2
      m_Curve: []
      m_PreInfinity: 2
      m_PostInfinity: 2
      m_RotationOrder: 4
    attribute: m_LocalEulerAngles.z
    path: default
    classID: 4
    script: {fileID: 0}
  m_HasGenericRootTransform: 0
  m_HasMotionFloatCurves: 0
  m_GenerateMotionCurves: 0
  m_Events: []
