# MagicaVoxel @ Ephtracy

# group
g axolotl

# material
mtllib axolotl.mtl
usemtl palette

# normals
vn -1 0 0
vn 1 0 0
vn 0 0 1
vn 0 0 -1
vn 0 -1 0
vn 0 1 0

# texcoords
vt 0.0722656 0.5
vt 0.119141 0.5
vt 0.126953 0.5
vt 0.138672 0.5
vt 0.994141 0.5

# verts
v -9 3 10
v -9 3 9
v -9 4 10
v -9 4 9
v -9 6 10
v -9 6 9
v -9 7 10
v -9 7 9
v -9 10 10
v -9 10 9
v -9 11 10
v -9 11 9
v -8 5 10
v -8 5 9
v -8 6 10
v -8 6 9
v -8 8 10
v -8 8 9
v -8 10 10
v -8 10 9
v -7 7 10
v -7 7 9
v -7 8 10
v -7 8 9
v -6 0 8
v -6 0 7
v -6 0 1
v -6 0 -0
v -6 1 8
v -6 1 7
v -6 1 1
v -6 1 -0
v -5 0 9
v -5 0 8
v -5 0 7
v -5 0 5
v -5 0 2
v -5 0 1
v -5 0 -0
v -5 0 -2
v -5 1 9
v -5 1 8
v -5 1 7
v -5 1 2
v -5 1 1
v -5 1 -0
v -5 5 7
v -5 5 5
v -5 5 -0
v -5 5 -2
v -4 3 18
v -4 3 16
v -4 3 9
v -4 3 7
v -4 3 5
v -4 3 -0
v -4 3 -2
v -4 3 -4
v -4 4 18
v -4 4 17
v -4 4 10
v -4 4 9
v -4 5 18
v -4 5 17
v -4 5 10
v -4 5 9
v -4 5 7
v -4 5 5
v -4 5 -0
v -4 5 -2
v -4 6 18
v -4 6 17
v -4 6 10
v -4 6 9
v -4 7 17
v -4 7 16
v -4 7 10
v -4 7 9
v -4 7 -3
v -4 7 -4
v -4 8 9
v -4 8 -3
v -3 3 16
v -3 3 10
v -3 7 17
v -3 7 16
v -3 7 -3
v -3 7 -4
v -3 8 17
v -3 8 15
v -3 8 10
v -3 8 -3
v -3 9 15
v -3 9 -4
v -2 3 -4
v -2 3 -5
v -2 7 -4
v -2 7 -5
v -1 3 -5
v -1 3 -10
v -1 4 -5
v -1 4 -10
v -1 4 -15
v -1 5 -10
v -1 5 -14
v -1 5 -15
v -1 5 -18
v -1 6 -7
v -1 6 -14
v -1 6 -15
v -1 6 -18
v -1 7 -4
v -1 7 -5
v -1 7 -10
v -1 7 -15
v -1 8 -4
v -1 8 -7
v -1 8 -8
v -1 8 -10
v -1 9 5
v -1 9 -4
v -1 9 -8
v -1 10 5
v -1 10 -4
v 3 0 1
v 3 0 -0
v 3 1 1
v 3 1 -0
v 4 0 8
v 4 0 7
v 4 0 2
v 4 0 1
v 4 0 -0
v 4 0 -2
v 4 1 8
v 4 1 7
v 4 1 2
v 4 1 1
v 4 1 -0
v 4 3 -0
v 4 3 -2
v 5 0 9
v 5 0 8
v 5 0 7
v 5 0 5
v 5 1 9
v 5 1 8
v 5 1 7
v 5 3 7
v 5 3 5
v 6 8 10
v 6 8 9
v 6 9 10
v 6 9 9
v 7 9 10
v 7 9 9
v 7 10 10
v 7 10 9
v 8 6 10
v 8 6 9
v 8 7 10
v 8 7 9
v 8 10 10
v 8 10 9
v 8 11 10
v 8 11 9
v -8 6 10
v -8 6 9
v -8 7 10
v -8 7 9
v -8 10 10
v -8 10 9
v -8 11 10
v -8 11 9
v -7 9 10
v -7 9 9
v -7 10 10
v -7 10 9
v -6 8 10
v -6 8 9
v -6 9 10
v -6 9 9
v -4 0 9
v -4 0 8
v -4 0 7
v -4 0 5
v -4 0 2
v -4 0 1
v -4 0 -0
v -4 0 -2
v -4 1 9
v -4 1 8
v -4 1 7
v -4 1 2
v -4 1 1
v -4 1 -0
v -4 3 7
v -4 3 5
v -4 3 -0
v -4 3 -2
v -3 0 8
v -3 0 7
v -3 0 1
v -3 0 -0
v -3 1 8
v -3 1 7
v -3 1 1
v -3 1 -0
v 1 3 -5
v 1 3 -10
v 1 4 -5
v 1 4 -10
v 1 4 -15
v 1 5 -10
v 1 5 -14
v 1 5 -15
v 1 5 -18
v 1 6 -7
v 1 6 -14
v 1 6 -15
v 1 6 -18
v 1 7 -4
v 1 7 -5
v 1 7 -10
v 1 7 -15
v 1 8 -4
v 1 8 -7
v 1 8 -8
v 1 8 -10
v 1 9 5
v 1 9 -4
v 1 9 -8
v 1 10 5
v 1 10 -4
v 2 3 -4
v 2 3 -5
v 2 7 -4
v 2 7 -5
v 3 3 16
v 3 3 10
v 3 7 17
v 3 7 16
v 3 7 -3
v 3 7 -4
v 3 8 17
v 3 8 15
v 3 8 10
v 3 8 -3
v 3 9 15
v 3 9 -4
v 4 3 18
v 4 3 16
v 4 3 9
v 4 3 7
v 4 3 5
v 4 3 -0
v 4 3 -2
v 4 3 -4
v 4 4 18
v 4 4 17
v 4 4 10
v 4 4 9
v 4 5 18
v 4 5 17
v 4 5 10
v 4 5 9
v 4 5 7
v 4 5 5
v 4 5 -0
v 4 5 -2
v 4 6 18
v 4 6 17
v 4 6 10
v 4 6 9
v 4 7 17
v 4 7 16
v 4 7 10
v 4 7 9
v 4 7 -3
v 4 7 -4
v 4 8 9
v 4 8 -3
v 5 0 2
v 5 0 1
v 5 0 -0
v 5 0 -2
v 5 1 2
v 5 1 1
v 5 1 -0
v 5 5 -0
v 5 5 -2
v 6 0 9
v 6 0 8
v 6 0 7
v 6 0 5
v 6 0 1
v 6 0 -0
v 6 1 9
v 6 1 8
v 6 1 7
v 6 1 1
v 6 1 -0
v 6 5 7
v 6 5 5
v 7 0 8
v 7 0 7
v 7 1 8
v 7 1 7
v 7 7 10
v 7 7 9
v 7 8 10
v 7 8 9
v 8 5 10
v 8 5 9
v 8 6 10
v 8 6 9
v 8 8 10
v 8 8 9
v 8 10 10
v 8 10 9
v 9 3 10
v 9 3 9
v 9 4 10
v 9 4 9
v 9 6 10
v 9 6 9
v 9 7 10
v 9 7 9
v 9 10 10
v 9 10 9
v 9 11 10
v 9 11 9
v -4 3 18
v -4 4 18
v -4 5 18
v -4 6 18
v 4 3 18
v 4 4 18
v 4 5 18
v 4 6 18
v -4 6 17
v -4 7 17
v -3 6 17
v -3 7 17
v -3 8 17
v -2 6 17
v -2 7 17
v 2 6 17
v 2 7 17
v 3 6 17
v 3 7 17
v 3 8 17
v 4 6 17
v 4 7 17
v -3 8 15
v -3 9 15
v 3 8 15
v 3 9 15
v -9 3 10
v -9 4 10
v -9 6 10
v -9 7 10
v -9 10 10
v -9 11 10
v -8 5 10
v -8 6 10
v -8 7 10
v -8 8 10
v -8 10 10
v -8 11 10
v -7 3 10
v -7 4 10
v -7 5 10
v -7 6 10
v -7 7 10
v -7 8 10
v -7 9 10
v -7 10 10
v -6 8 10
v -6 9 10
v -4 4 10
v -4 5 10
v -4 6 10
v -4 7 10
v -3 3 10
v -3 8 10
v 3 3 10
v 3 8 10
v 4 4 10
v 4 5 10
v 4 6 10
v 4 7 10
v 6 8 10
v 6 9 10
v 7 3 10
v 7 4 10
v 7 5 10
v 7 6 10
v 7 7 10
v 7 8 10
v 7 9 10
v 7 10 10
v 8 5 10
v 8 6 10
v 8 7 10
v 8 8 10
v 8 10 10
v 8 11 10
v 9 3 10
v 9 4 10
v 9 6 10
v 9 7 10
v 9 10 10
v 9 11 10
v -5 0 9
v -5 1 9
v -4 0 9
v -4 1 9
v 5 0 9
v 5 1 9
v 6 0 9
v 6 1 9
v -6 0 8
v -6 1 8
v -5 0 8
v -5 1 8
v -4 0 8
v -4 1 8
v -3 0 8
v -3 1 8
v 4 0 8
v 4 1 8
v 5 0 8
v 5 1 8
v 6 0 8
v 6 1 8
v 7 0 8
v 7 1 8
v -5 1 7
v -5 5 7
v -4 1 7
v -4 3 7
v -4 5 7
v 4 3 7
v 4 5 7
v 5 1 7
v 5 3 7
v 6 1 7
v 6 5 7
v -1 9 5
v -1 10 5
v 1 9 5
v 1 10 5
v -5 0 2
v -5 1 2
v -4 0 2
v -4 1 2
v 4 0 2
v 4 1 2
v 5 0 2
v 5 1 2
v -6 0 1
v -6 1 1
v -5 0 1
v -5 1 1
v -4 0 1
v -4 1 1
v -3 0 1
v -3 1 1
v 3 0 1
v 3 1 1
v 4 0 1
v 4 1 1
v 5 0 1
v 5 1 1
v 6 0 1
v 6 1 1
v -5 1 -0
v -5 5 -0
v -4 1 -0
v -4 3 -0
v -4 5 -0
v 4 1 -0
v 4 3 -0
v 4 5 -0
v 5 1 -0
v 5 5 -0
v -4 3 16
v -4 7 16
v -3 3 16
v -3 7 16
v 3 3 16
v 3 7 16
v 4 3 16
v 4 7 16
v -9 3 9
v -9 4 9
v -9 6 9
v -9 7 9
v -9 10 9
v -9 11 9
v -8 5 9
v -8 6 9
v -8 7 9
v -8 8 9
v -8 10 9
v -8 11 9
v -7 3 9
v -7 4 9
v -7 5 9
v -7 6 9
v -7 7 9
v -7 8 9
v -7 9 9
v -7 10 9
v -6 8 9
v -6 9 9
v -4 3 9
v -4 4 9
v -4 5 9
v -4 6 9
v -4 7 9
v -4 8 9
v 4 3 9
v 4 4 9
v 4 5 9
v 4 6 9
v 4 7 9
v 4 8 9
v 6 8 9
v 6 9 9
v 7 3 9
v 7 4 9
v 7 5 9
v 7 6 9
v 7 7 9
v 7 8 9
v 7 9 9
v 7 10 9
v 8 5 9
v 8 6 9
v 8 7 9
v 8 8 9
v 8 10 9
v 8 11 9
v 9 3 9
v 9 4 9
v 9 6 9
v 9 7 9
v 9 10 9
v 9 11 9
v -6 0 7
v -6 1 7
v -5 0 7
v -5 1 7
v -4 0 7
v -4 1 7
v -3 0 7
v -3 1 7
v 4 0 7
v 4 1 7
v 5 0 7
v 5 1 7
v 6 0 7
v 6 1 7
v 7 0 7
v 7 1 7
v -5 0 5
v -5 5 5
v -4 0 5
v -4 3 5
v -4 5 5
v 4 3 5
v 4 5 5
v 5 0 5
v 5 3 5
v 6 0 5
v 6 5 5
v -6 0 -0
v -6 1 -0
v -5 0 -0
v -5 1 -0
v -4 0 -0
v -4 1 -0
v -3 0 -0
v -3 1 -0
v 3 0 -0
v 3 1 -0
v 4 0 -0
v 4 1 -0
v 5 0 -0
v 5 1 -0
v 6 0 -0
v 6 1 -0
v -5 0 -2
v -5 5 -2
v -4 0 -2
v -4 3 -2
v -4 5 -2
v 4 0 -2
v 4 3 -2
v 4 5 -2
v 5 0 -2
v 5 5 -2
v -4 7 -3
v -4 8 -3
v -3 7 -3
v -3 8 -3
v 3 7 -3
v 3 8 -3
v 4 7 -3
v 4 8 -3
v -4 3 -4
v -4 7 -4
v -3 7 -4
v -3 9 -4
v -2 3 -4
v -2 7 -4
v -1 7 -4
v -1 8 -4
v -1 9 -4
v -1 10 -4
v 1 7 -4
v 1 8 -4
v 1 9 -4
v 1 10 -4
v 2 3 -4
v 2 7 -4
v 3 7 -4
v 3 9 -4
v 4 3 -4
v 4 7 -4
v -2 3 -5
v -2 7 -5
v -1 3 -5
v -1 4 -5
v -1 7 -5
v 1 3 -5
v 1 4 -5
v 1 7 -5
v 2 3 -5
v 2 7 -5
v -1 8 -8
v -1 9 -8
v 1 8 -8
v 1 9 -8
v -1 3 -10
v -1 4 -10
v -1 7 -10
v -1 8 -10
v 1 3 -10
v 1 4 -10
v 1 7 -10
v 1 8 -10
v -1 4 -15
v -1 5 -15
v -1 6 -15
v -1 7 -15
v 1 4 -15
v 1 5 -15
v 1 6 -15
v 1 7 -15
v -1 5 -18
v -1 6 -18
v 1 5 -18
v 1 6 -18
v -5 0 9
v -4 0 9
v 5 0 9
v 6 0 9
v -6 0 8
v -5 0 8
v -4 0 8
v -3 0 8
v 4 0 8
v 5 0 8
v 6 0 8
v 7 0 8
v -6 0 7
v -5 0 7
v -4 0 7
v -3 0 7
v 4 0 7
v 5 0 7
v 6 0 7
v 7 0 7
v -5 0 5
v -4 0 5
v 5 0 5
v 6 0 5
v -5 0 2
v -4 0 2
v 4 0 2
v 5 0 2
v -6 0 1
v -5 0 1
v -4 0 1
v -3 0 1
v 3 0 1
v 4 0 1
v 5 0 1
v 6 0 1
v -6 0 -0
v -5 0 -0
v -4 0 -0
v -3 0 -0
v 3 0 -0
v 4 0 -0
v 5 0 -0
v 6 0 -0
v -5 0 -2
v -4 0 -2
v 4 0 -2
v 5 0 -2
v -4 3 18
v 4 3 18
v -4 3 16
v -3 3 16
v 3 3 16
v 4 3 16
v -9 3 10
v -7 3 10
v -3 3 10
v 3 3 10
v 7 3 10
v 9 3 10
v -9 3 9
v -7 3 9
v -4 3 9
v 4 3 9
v 7 3 9
v 9 3 9
v -4 3 7
v 4 3 7
v 5 3 7
v -4 3 5
v 4 3 5
v 5 3 5
v -4 3 -0
v 4 3 -0
v -4 3 -2
v 4 3 -2
v -4 3 -4
v -2 3 -4
v 2 3 -4
v 4 3 -4
v -2 3 -5
v -1 3 -5
v 1 3 -5
v 2 3 -5
v -1 3 -10
v 1 3 -10
v -1 4 -10
v 1 4 -10
v -1 4 -15
v 1 4 -15
v -8 5 10
v -7 5 10
v -4 5 10
v 4 5 10
v 7 5 10
v 8 5 10
v -8 5 9
v -7 5 9
v -4 5 9
v 4 5 9
v 7 5 9
v 8 5 9
v -1 5 -15
v 1 5 -15
v -1 5 -18
v 1 5 -18
v -9 6 10
v -8 6 10
v 8 6 10
v 9 6 10
v -9 6 9
v -8 6 9
v 8 6 9
v 9 6 9
v -7 7 10
v -4 7 10
v 4 7 10
v 7 7 10
v -7 7 9
v -4 7 9
v 4 7 9
v 7 7 9
v -8 8 10
v -7 8 10
v 7 8 10
v 8 8 10
v -8 8 9
v -7 8 9
v 7 8 9
v 8 8 9
v -9 10 10
v -8 10 10
v 8 10 10
v 9 10 10
v -9 10 9
v -8 10 9
v 8 10 9
v 9 10 9
v -5 1 9
v -4 1 9
v 5 1 9
v 6 1 9
v -6 1 8
v -5 1 8
v -4 1 8
v -3 1 8
v 4 1 8
v 5 1 8
v 6 1 8
v 7 1 8
v -6 1 7
v -5 1 7
v -4 1 7
v -3 1 7
v 4 1 7
v 5 1 7
v 6 1 7
v 7 1 7
v -5 1 2
v -4 1 2
v 4 1 2
v 5 1 2
v -6 1 1
v -5 1 1
v -4 1 1
v -3 1 1
v 3 1 1
v 4 1 1
v 5 1 1
v 6 1 1
v -6 1 -0
v -5 1 -0
v -4 1 -0
v -3 1 -0
v 3 1 -0
v 4 1 -0
v 5 1 -0
v 6 1 -0
v -9 4 10
v -7 4 10
v -4 4 10
v 4 4 10
v 7 4 10
v 9 4 10
v -9 4 9
v -7 4 9
v -4 4 9
v 4 4 9
v 7 4 9
v 9 4 9
v -5 5 7
v -4 5 7
v 4 5 7
v 6 5 7
v -5 5 5
v -4 5 5
v 4 5 5
v 6 5 5
v -5 5 -0
v -4 5 -0
v 4 5 -0
v 5 5 -0
v -5 5 -2
v -4 5 -2
v 4 5 -2
v 5 5 -2
v -4 6 18
v 4 6 18
v -4 6 17
v -3 6 17
v -2 6 17
v 2 6 17
v 3 6 17
v 4 6 17
v -8 6 10
v -7 6 10
v -4 6 10
v 4 6 10
v 7 6 10
v 8 6 10
v -8 6 9
v -7 6 9
v -4 6 9
v 4 6 9
v 7 6 9
v 8 6 9
v -1 6 -15
v 1 6 -15
v -1 6 -18
v 1 6 -18
v -4 7 17
v -3 7 17
v 3 7 17
v 4 7 17
v -4 7 16
v -3 7 16
v 3 7 16
v 4 7 16
v -9 7 10
v -8 7 10
v 8 7 10
v 9 7 10
v -9 7 9
v -8 7 9
v 8 7 9
v 9 7 9
v -4 7 -3
v -3 7 -3
v 3 7 -3
v 4 7 -3
v -4 7 -4
v -3 7 -4
v -2 7 -4
v -1 7 -4
v 1 7 -4
v 2 7 -4
v 3 7 -4
v 4 7 -4
v -2 7 -5
v -1 7 -5
v 1 7 -5
v 2 7 -5
v -1 7 -10
v 1 7 -10
v -1 7 -15
v 1 7 -15
v -3 8 17
v 3 8 17
v -3 8 15
v 3 8 15
v -6 8 10
v -3 8 10
v 3 8 10
v 6 8 10
v -6 8 9
v -4 8 9
v 4 8 9
v 6 8 9
v -4 8 -3
v -3 8 -3
v 3 8 -3
v 4 8 -3
v -1 8 -8
v 1 8 -8
v -1 8 -10
v 1 8 -10
v -3 9 15
v 3 9 15
v -7 9 10
v -6 9 10
v 6 9 10
v 7 9 10
v -7 9 9
v -6 9 9
v 6 9 9
v 7 9 9
v -1 9 5
v 1 9 5
v -3 9 -4
v -1 9 -4
v 1 9 -4
v 3 9 -4
v -1 9 -8
v 1 9 -8
v -8 10 10
v -7 10 10
v 7 10 10
v 8 10 10
v -8 10 9
v -7 10 9
v 7 10 9
v 8 10 9
v -1 10 5
v 1 10 5
v -1 10 -4
v 1 10 -4
v -9 11 10
v -8 11 10
v 8 11 10
v 9 11 10
v -9 11 9
v -8 11 9
v 8 11 9
v 9 11 9

# faces
f 3/4/1 2/4/1 1/4/1
f 4/4/1 2/4/1 3/4/1
f 7/4/1 6/4/1 5/4/1
f 8/4/1 6/4/1 7/4/1
f 11/4/1 10/4/1 9/4/1
f 12/4/1 10/4/1 11/4/1
f 15/4/1 14/4/1 13/4/1
f 16/4/1 14/4/1 15/4/1
f 19/4/1 18/4/1 17/4/1
f 20/4/1 18/4/1 19/4/1
f 23/3/1 22/3/1 21/3/1
f 24/3/1 22/3/1 23/3/1
f 29/3/1 26/3/1 25/3/1
f 30/3/1 26/3/1 29/3/1
f 31/3/1 28/3/1 27/3/1
f 32/3/1 28/3/1 31/3/1
f 41/3/1 34/3/1 33/3/1
f 42/3/1 34/3/1 41/3/1
f 43/3/1 36/3/1 35/3/1
f 44/3/1 38/3/1 37/3/1
f 45/3/1 38/3/1 44/3/1
f 46/3/1 40/3/1 39/3/1
f 47/3/1 36/3/1 43/3/1
f 48/3/1 36/3/1 47/3/1
f 49/3/1 40/3/1 46/3/1
f 50/3/1 40/3/1 49/3/1
f 59/3/1 52/3/1 51/3/1
f 60/3/1 52/3/1 59/3/1
f 62/3/1 54/3/1 53/3/1
f 63/5/1 60/5/1 59/5/1
f 64/3/1 52/3/1 60/3/1
f 64/5/1 60/5/1 63/5/1
f 65/3/1 62/3/1 61/3/1
f 66/3/1 54/3/1 62/3/1
f 66/3/1 62/3/1 65/3/1
f 67/3/1 54/3/1 66/3/1
f 68/3/1 56/3/1 55/3/1
f 69/3/1 56/3/1 68/3/1
f 70/3/1 58/3/1 57/3/1
f 71/3/1 64/3/1 63/3/1
f 72/3/1 52/3/1 64/3/1
f 72/3/1 64/3/1 71/3/1
f 74/3/1 69/3/1 68/3/1
f 74/3/1 67/3/1 66/3/1
f 74/3/1 70/3/1 69/3/1
f 74/3/1 68/3/1 67/3/1
f 75/3/1 52/3/1 72/3/1
f 76/3/1 52/3/1 75/3/1
f 77/3/1 74/3/1 73/3/1
f 78/3/1 70/3/1 74/3/1
f 78/3/1 74/3/1 77/3/1
f 79/3/1 58/3/1 70/3/1
f 79/3/1 70/3/1 78/3/1
f 80/3/1 58/3/1 79/3/1
f 81/3/1 79/3/1 78/3/1
f 82/3/1 79/3/1 81/3/1
f 86/3/1 84/3/1 83/3/1
f 89/3/1 86/3/1 85/3/1
f 90/3/1 84/3/1 86/3/1
f 90/3/1 86/3/1 89/3/1
f 91/3/1 84/3/1 90/3/1
f 92/3/1 88/3/1 87/3/1
f 93/3/1 91/3/1 90/3/1
f 93/3/1 92/3/1 91/3/1
f 94/3/1 88/3/1 92/3/1
f 94/3/1 92/3/1 93/3/1
f 97/3/1 96/3/1 95/3/1
f 98/3/1 96/3/1 97/3/1
f 101/1/1 100/1/1 99/1/1
f 102/1/1 100/1/1 101/1/1
f 104/3/1 102/3/1 101/3/1
f 104/1/1 103/1/1 102/1/1
f 105/1/1 103/1/1 104/1/1
f 106/1/1 103/1/1 105/1/1
f 108/3/1 104/3/1 101/3/1
f 108/3/1 105/3/1 104/3/1
f 109/1/1 107/1/1 106/1/1
f 109/3/1 105/3/1 108/3/1
f 109/1/1 106/1/1 105/1/1
f 110/1/1 107/1/1 109/1/1
f 111/1/1 107/1/1 110/1/1
f 113/3/1 108/3/1 101/3/1
f 114/1/1 109/1/1 108/1/1
f 114/1/1 110/1/1 109/1/1
f 115/1/1 110/1/1 114/1/1
f 116/3/1 113/3/1 112/3/1
f 117/3/1 108/3/1 113/3/1
f 117/3/1 113/3/1 116/3/1
f 117/1/1 114/1/1 108/1/1
f 118/1/1 114/1/1 117/1/1
f 119/1/1 114/1/1 118/1/1
f 121/1/1 117/1/1 116/1/1
f 121/1/1 118/1/1 117/1/1
f 122/1/1 118/1/1 121/1/1
f 123/1/1 121/1/1 120/1/1
f 124/1/1 121/1/1 123/1/1
f 127/3/1 126/3/1 125/3/1
f 128/3/1 126/3/1 127/3/1
f 135/3/1 130/3/1 129/3/1
f 136/3/1 130/3/1 135/3/1
f 137/3/1 132/3/1 131/3/1
f 138/3/1 132/3/1 137/3/1
f 139/3/1 134/3/1 133/3/1
f 140/3/1 134/3/1 139/3/1
f 141/3/1 134/3/1 140/3/1
f 146/3/1 143/3/1 142/3/1
f 147/3/1 143/3/1 146/3/1
f 148/3/1 145/3/1 144/3/1
f 149/3/1 145/3/1 148/3/1
f 150/3/1 145/3/1 149/3/1
f 153/3/1 152/3/1 151/3/1
f 154/3/1 152/3/1 153/3/1
f 157/4/1 156/4/1 155/4/1
f 158/4/1 156/4/1 157/4/1
f 161/4/1 160/4/1 159/4/1
f 162/4/1 160/4/1 161/4/1
f 165/4/1 164/4/1 163/4/1
f 166/4/1 164/4/1 165/4/1
f 167/4/2 168/4/2 169/4/2
f 169/4/2 168/4/2 170/4/2
f 171/4/2 172/4/2 173/4/2
f 173/4/2 172/4/2 174/4/2
f 175/4/2 176/4/2 177/4/2
f 177/4/2 176/4/2 178/4/2
f 179/3/2 180/3/2 181/3/2
f 181/3/2 180/3/2 182/3/2
f 183/3/2 184/3/2 191/3/2
f 191/3/2 184/3/2 192/3/2
f 185/3/2 186/3/2 193/3/2
f 187/3/2 188/3/2 194/3/2
f 194/3/2 188/3/2 195/3/2
f 189/3/2 190/3/2 196/3/2
f 193/3/2 186/3/2 197/3/2
f 197/3/2 186/3/2 198/3/2
f 196/3/2 190/3/2 199/3/2
f 199/3/2 190/3/2 200/3/2
f 201/3/2 202/3/2 205/3/2
f 205/3/2 202/3/2 206/3/2
f 203/3/2 204/3/2 207/3/2
f 207/3/2 204/3/2 208/3/2
f 209/1/2 210/1/2 211/1/2
f 211/1/2 210/1/2 212/1/2
f 211/3/2 212/3/2 214/3/2
f 212/1/2 213/1/2 214/1/2
f 214/1/2 213/1/2 215/1/2
f 215/1/2 213/1/2 216/1/2
f 211/3/2 214/3/2 218/3/2
f 214/3/2 215/3/2 218/3/2
f 216/1/2 217/1/2 219/1/2
f 218/3/2 215/3/2 219/3/2
f 215/1/2 216/1/2 219/1/2
f 219/1/2 217/1/2 220/1/2
f 220/1/2 217/1/2 221/1/2
f 211/3/2 218/3/2 223/3/2
f 218/1/2 219/1/2 224/1/2
f 219/1/2 220/1/2 224/1/2
f 224/1/2 220/1/2 225/1/2
f 222/3/2 223/3/2 226/3/2
f 223/3/2 218/3/2 227/3/2
f 226/3/2 223/3/2 227/3/2
f 218/1/2 224/1/2 227/1/2
f 227/1/2 224/1/2 228/1/2
f 228/1/2 224/1/2 229/1/2
f 226/1/2 227/1/2 231/1/2
f 227/1/2 228/1/2 231/1/2
f 231/1/2 228/1/2 232/1/2
f 230/1/2 231/1/2 233/1/2
f 233/1/2 231/1/2 234/1/2
f 235/3/2 236/3/2 237/3/2
f 237/3/2 236/3/2 238/3/2
f 239/3/2 240/3/2 242/3/2
f 241/3/2 242/3/2 245/3/2
f 242/3/2 240/3/2 246/3/2
f 245/3/2 242/3/2 246/3/2
f 246/3/2 240/3/2 247/3/2
f 243/3/2 244/3/2 248/3/2
f 246/3/2 247/3/2 249/3/2
f 247/3/2 248/3/2 249/3/2
f 248/3/2 244/3/2 250/3/2
f 249/3/2 248/3/2 250/3/2
f 251/3/2 252/3/2 259/3/2
f 259/3/2 252/3/2 260/3/2
f 253/3/2 254/3/2 262/3/2
f 259/5/2 260/5/2 263/5/2
f 260/3/2 252/3/2 264/3/2
f 263/5/2 260/5/2 264/5/2
f 261/3/2 262/3/2 265/3/2
f 262/3/2 254/3/2 266/3/2
f 265/3/2 262/3/2 266/3/2
f 266/3/2 254/3/2 267/3/2
f 255/3/2 256/3/2 268/3/2
f 268/3/2 256/3/2 269/3/2
f 257/3/2 258/3/2 270/3/2
f 263/3/2 264/3/2 271/3/2
f 264/3/2 252/3/2 272/3/2
f 271/3/2 264/3/2 272/3/2
f 268/3/2 269/3/2 274/3/2
f 266/3/2 267/3/2 274/3/2
f 269/3/2 270/3/2 274/3/2
f 267/3/2 268/3/2 274/3/2
f 272/3/2 252/3/2 275/3/2
f 275/3/2 252/3/2 276/3/2
f 273/3/2 274/3/2 277/3/2
f 274/3/2 270/3/2 278/3/2
f 277/3/2 274/3/2 278/3/2
f 270/3/2 258/3/2 279/3/2
f 278/3/2 270/3/2 279/3/2
f 279/3/2 258/3/2 280/3/2
f 278/3/2 279/3/2 281/3/2
f 281/3/2 279/3/2 282/3/2
f 283/3/2 284/3/2 287/3/2
f 287/3/2 284/3/2 288/3/2
f 285/3/2 286/3/2 289/3/2
f 289/3/2 286/3/2 290/3/2
f 290/3/2 286/3/2 291/3/2
f 292/3/2 293/3/2 298/3/2
f 298/3/2 293/3/2 299/3/2
f 294/3/2 295/3/2 300/3/2
f 296/3/2 297/3/2 301/3/2
f 301/3/2 297/3/2 302/3/2
f 300/3/2 295/3/2 303/3/2
f 303/3/2 295/3/2 304/3/2
f 305/3/2 306/3/2 307/3/2
f 307/3/2 306/3/2 308/3/2
f 309/3/2 310/3/2 311/3/2
f 311/3/2 310/3/2 312/3/2
f 313/4/2 314/4/2 315/4/2
f 315/4/2 314/4/2 316/4/2
f 317/4/2 318/4/2 319/4/2
f 319/4/2 318/4/2 320/4/2
f 321/4/2 322/4/2 323/4/2
f 323/4/2 322/4/2 324/4/2
f 325/4/2 326/4/2 327/4/2
f 327/4/2 326/4/2 328/4/2
f 329/4/2 330/4/2 331/4/2
f 331/4/2 330/4/2 332/4/2
f 337/3/3 334/3/3 333/3/3
f 338/5/3 335/5/3 334/5/3
f 338/3/3 334/3/3 337/3/3
f 339/3/3 336/3/3 335/3/3
f 339/5/3 335/5/3 338/5/3
f 340/3/3 336/3/3 339/3/3
f 343/3/3 342/3/3 341/3/3
f 344/3/3 342/3/3 343/3/3
f 346/5/3 344/5/3 343/5/3
f 347/3/3 345/3/3 344/3/3
f 347/5/3 344/5/3 346/5/3
f 348/3/3 347/3/3 346/3/3
f 349/3/3 345/3/3 347/3/3
f 349/3/3 347/3/3 348/3/3
f 350/5/3 349/5/3 348/5/3
f 351/3/3 345/3/3 349/3/3
f 351/5/3 349/5/3 350/5/3
f 352/3/3 345/3/3 351/3/3
f 353/3/3 351/3/3 350/3/3
f 354/3/3 351/3/3 353/3/3
f 357/3/3 356/3/3 355/3/3
f 358/3/3 356/3/3 357/3/3
f 366/4/3 362/4/3 361/4/3
f 367/4/3 362/4/3 366/4/3
f 369/4/3 364/4/3 363/4/3
f 370/4/3 364/4/3 369/4/3
f 371/4/3 360/4/3 359/4/3
f 372/4/3 360/4/3 371/4/3
f 373/4/3 366/4/3 365/4/3
f 374/4/3 366/4/3 373/4/3
f 376/4/3 369/4/3 368/4/3
f 377/4/3 369/4/3 376/4/3
f 378/4/3 369/4/3 377/4/3
f 379/3/3 376/3/3 375/3/3
f 379/3/3 377/3/3 376/3/3
f 380/3/3 377/3/3 379/3/3
f 381/3/3 372/3/3 371/3/3
f 382/3/3 374/3/3 373/3/3
f 383/3/3 374/3/3 382/3/3
f 384/3/3 379/3/3 375/3/3
f 385/3/3 381/3/3 371/3/3
f 385/3/3 384/3/3 383/3/3
f 385/3/3 383/3/3 382/3/3
f 385/3/3 382/3/3 381/3/3
f 386/3/3 379/3/3 384/3/3
f 386/3/3 384/3/3 385/3/3
f 389/3/3 388/3/3 387/3/3
f 390/3/3 388/3/3 389/3/3
f 391/3/3 388/3/3 390/3/3
f 392/3/3 388/3/3 391/3/3
f 393/3/3 388/3/3 392/3/3
f 395/3/3 389/3/3 387/3/3
f 396/3/3 389/3/3 395/3/3
f 397/3/3 391/3/3 390/3/3
f 398/3/3 391/3/3 397/3/3
f 399/3/3 393/3/3 392/3/3
f 399/3/3 394/3/3 393/3/3
f 400/3/3 394/3/3 399/3/3
f 401/3/3 394/3/3 400/3/3
f 403/4/3 398/4/3 397/4/3
f 404/4/3 398/4/3 403/4/3
f 406/4/3 401/4/3 400/4/3
f 406/4/3 402/4/3 401/4/3
f 407/4/3 402/4/3 406/4/3
f 409/4/3 396/4/3 395/4/3
f 410/4/3 396/4/3 409/4/3
f 411/4/3 405/4/3 404/4/3
f 412/4/3 405/4/3 411/4/3
f 413/4/3 408/4/3 407/4/3
f 414/4/3 408/4/3 413/4/3
f 417/3/3 416/3/3 415/3/3
f 418/3/3 416/3/3 417/3/3
f 421/3/3 420/3/3 419/3/3
f 422/3/3 420/3/3 421/3/3
f 425/3/3 424/3/3 423/3/3
f 426/3/3 424/3/3 425/3/3
f 429/3/3 428/3/3 427/3/3
f 430/3/3 428/3/3 429/3/3
f 433/3/3 432/3/3 431/3/3
f 434/3/3 432/3/3 433/3/3
f 437/3/3 436/3/3 435/3/3
f 438/3/3 436/3/3 437/3/3
f 441/3/3 440/3/3 439/3/3
f 442/3/3 440/3/3 441/3/3
f 443/3/3 440/3/3 442/3/3
f 447/3/3 445/3/3 444/3/3
f 448/3/3 447/3/3 446/3/3
f 449/3/3 445/3/3 447/3/3
f 449/3/3 447/3/3 448/3/3
f 452/1/3 451/1/3 450/1/3
f 453/1/3 451/1/3 452/1/3
f 456/3/3 455/3/3 454/3/3
f 457/3/3 455/3/3 456/3/3
f 460/3/3 459/3/3 458/3/3
f 461/3/3 459/3/3 460/3/3
f 464/3/3 463/3/3 462/3/3
f 465/3/3 463/3/3 464/3/3
f 468/3/3 467/3/3 466/3/3
f 469/3/3 467/3/3 468/3/3
f 472/3/3 471/3/3 470/3/3
f 473/3/3 471/3/3 472/3/3
f 476/3/3 475/3/3 474/3/3
f 477/3/3 475/3/3 476/3/3
f 480/3/3 479/3/3 478/3/3
f 481/3/3 479/3/3 480/3/3
f 482/3/3 479/3/3 481/3/3
f 486/3/3 484/3/3 483/3/3
f 486/3/3 485/3/3 484/3/3
f 487/3/3 485/3/3 486/3/3
f 488/3/4 489/3/4 490/3/4
f 490/3/4 489/3/4 491/3/4
f 492/3/4 493/3/4 494/3/4
f 494/3/4 493/3/4 495/3/4
f 498/4/4 499/4/4 503/4/4
f 503/4/4 499/4/4 504/4/4
f 500/4/4 501/4/4 506/4/4
f 506/4/4 501/4/4 507/4/4
f 496/4/4 497/4/4 508/4/4
f 508/4/4 497/4/4 509/4/4
f 502/4/4 503/4/4 510/4/4
f 510/4/4 503/4/4 511/4/4
f 505/4/4 506/4/4 513/4/4
f 513/4/4 506/4/4 514/4/4
f 514/4/4 506/4/4 515/4/4
f 512/3/4 513/3/4 516/3/4
f 513/3/4 514/3/4 516/3/4
f 516/3/4 514/3/4 517/3/4
f 508/3/4 509/3/4 518/3/4
f 518/3/4 509/3/4 519/3/4
f 510/3/4 511/3/4 520/3/4
f 520/3/4 511/3/4 521/3/4
f 512/3/4 516/3/4 522/3/4
f 522/3/4 516/3/4 523/3/4
f 528/3/4 529/3/4 530/3/4
f 524/3/4 525/3/4 532/3/4
f 532/3/4 525/3/4 533/3/4
f 526/3/4 527/3/4 534/3/4
f 534/3/4 527/3/4 535/3/4
f 528/3/4 530/3/4 536/3/4
f 530/3/4 531/3/4 536/3/4
f 536/3/4 531/3/4 537/3/4
f 537/3/4 531/3/4 538/3/4
f 534/4/4 535/4/4 540/4/4
f 540/4/4 535/4/4 541/4/4
f 538/4/4 539/4/4 543/4/4
f 537/4/4 538/4/4 543/4/4
f 543/4/4 539/4/4 544/4/4
f 532/4/4 533/4/4 546/4/4
f 546/4/4 533/4/4 547/4/4
f 541/4/4 542/4/4 548/4/4
f 548/4/4 542/4/4 549/4/4
f 544/4/4 545/4/4 550/4/4
f 550/4/4 545/4/4 551/4/4
f 552/3/4 553/3/4 554/3/4
f 554/3/4 553/3/4 555/3/4
f 556/3/4 557/3/4 558/3/4
f 558/3/4 557/3/4 559/3/4
f 560/3/4 561/3/4 562/3/4
f 562/3/4 561/3/4 563/3/4
f 564/3/4 565/3/4 566/3/4
f 566/3/4 565/3/4 567/3/4
f 568/3/4 569/3/4 570/3/4
f 570/3/4 569/3/4 571/3/4
f 571/3/4 569/3/4 572/3/4
f 573/3/4 574/3/4 576/3/4
f 575/3/4 576/3/4 577/3/4
f 576/3/4 574/3/4 578/3/4
f 577/3/4 576/3/4 578/3/4
f 579/3/4 580/3/4 581/3/4
f 581/3/4 580/3/4 582/3/4
f 583/3/4 584/3/4 585/3/4
f 585/3/4 584/3/4 586/3/4
f 587/3/4 588/3/4 589/3/4
f 589/3/4 588/3/4 590/3/4
f 591/3/4 592/3/4 593/3/4
f 593/3/4 592/3/4 594/3/4
f 595/3/4 596/3/4 597/3/4
f 597/3/4 596/3/4 598/3/4
f 598/3/4 596/3/4 599/3/4
f 600/3/4 601/3/4 603/3/4
f 601/3/4 602/3/4 603/3/4
f 603/3/4 602/3/4 604/3/4
f 605/3/4 606/3/4 607/3/4
f 607/3/4 606/3/4 608/3/4
f 609/3/4 610/3/4 611/3/4
f 611/3/4 610/3/4 612/3/4
f 613/3/4 614/3/4 615/3/4
f 613/3/4 615/3/4 617/3/4
f 615/3/4 616/3/4 617/3/4
f 617/3/4 616/3/4 618/3/4
f 618/3/4 616/3/4 619/3/4
f 619/3/4 616/3/4 620/3/4
f 620/3/4 616/3/4 621/3/4
f 621/1/4 622/1/4 625/1/4
f 625/1/4 622/1/4 626/1/4
f 623/3/4 624/3/4 628/3/4
f 624/3/4 625/3/4 628/3/4
f 628/3/4 625/3/4 629/3/4
f 627/3/4 628/3/4 629/3/4
f 629/3/4 625/3/4 630/3/4
f 627/3/4 629/3/4 631/3/4
f 631/3/4 629/3/4 632/3/4
f 633/3/4 634/3/4 635/3/4
f 635/3/4 634/3/4 636/3/4
f 636/3/4 634/3/4 637/3/4
f 638/3/4 639/3/4 641/3/4
f 639/3/4 640/3/4 641/3/4
f 641/3/4 640/3/4 642/3/4
f 643/1/4 644/1/4 645/1/4
f 645/1/4 644/1/4 646/1/4
f 647/1/4 648/1/4 651/1/4
f 651/1/4 648/1/4 652/1/4
f 649/1/4 650/1/4 653/1/4
f 653/1/4 650/1/4 654/1/4
f 655/1/4 656/1/4 659/1/4
f 659/1/4 656/1/4 660/1/4
f 657/1/4 658/1/4 661/1/4
f 661/1/4 658/1/4 662/1/4
f 663/1/4 664/1/4 665/1/4
f 665/1/4 664/1/4 666/1/4
f 672/3/5 668/3/5 667/3/5
f 673/3/5 668/3/5 672/3/5
f 676/3/5 670/3/5 669/3/5
f 677/3/5 670/3/5 676/3/5
f 679/3/5 674/3/5 673/3/5
f 679/3/5 672/3/5 671/3/5
f 679/3/5 673/3/5 672/3/5
f 680/3/5 674/3/5 679/3/5
f 681/3/5 674/3/5 680/3/5
f 682/3/5 674/3/5 681/3/5
f 683/3/5 678/3/5 677/3/5
f 683/3/5 677/3/5 676/3/5
f 683/3/5 676/3/5 675/3/5
f 684/3/5 678/3/5 683/3/5
f 685/3/5 678/3/5 684/3/5
f 686/3/5 678/3/5 685/3/5
f 687/3/5 681/3/5 680/3/5
f 688/3/5 681/3/5 687/3/5
f 689/3/5 685/3/5 684/3/5
f 690/3/5 685/3/5 689/3/5
f 696/3/5 692/3/5 691/3/5
f 697/3/5 692/3/5 696/3/5
f 700/3/5 694/3/5 693/3/5
f 701/3/5 694/3/5 700/3/5
f 703/3/5 698/3/5 697/3/5
f 703/3/5 696/3/5 695/3/5
f 703/3/5 697/3/5 696/3/5
f 704/3/5 698/3/5 703/3/5
f 705/3/5 698/3/5 704/3/5
f 706/3/5 698/3/5 705/3/5
f 707/3/5 702/3/5 701/3/5
f 707/3/5 701/3/5 700/3/5
f 707/3/5 700/3/5 699/3/5
f 708/3/5 702/3/5 707/3/5
f 709/3/5 702/3/5 708/3/5
f 710/3/5 702/3/5 709/3/5
f 711/3/5 705/3/5 704/3/5
f 712/3/5 705/3/5 711/3/5
f 713/3/5 709/3/5 708/3/5
f 714/3/5 709/3/5 713/3/5
f 717/3/5 716/3/5 715/3/5
f 718/3/5 716/3/5 717/3/5
f 719/3/5 716/3/5 718/3/5
f 720/3/5 716/3/5 719/3/5
f 723/3/5 719/3/5 718/3/5
f 724/3/5 719/3/5 723/3/5
f 727/4/5 722/4/5 721/4/5
f 728/3/5 724/3/5 723/3/5
f 728/4/5 722/4/5 727/4/5
f 728/3/5 723/3/5 722/3/5
f 728/3/5 725/3/5 724/3/5
f 729/3/5 725/3/5 728/3/5
f 730/3/5 725/3/5 729/3/5
f 731/4/5 726/4/5 725/4/5
f 731/3/5 725/3/5 730/3/5
f 732/4/5 726/4/5 731/4/5
f 733/3/5 730/3/5 729/3/5
f 734/3/5 730/3/5 733/3/5
f 736/3/5 734/3/5 733/3/5
f 736/3/5 735/3/5 734/3/5
f 737/3/5 735/3/5 736/3/5
f 738/3/5 735/3/5 737/3/5
f 739/3/5 737/3/5 736/3/5
f 740/3/5 737/3/5 739/3/5
f 741/3/5 740/3/5 739/3/5
f 742/3/5 740/3/5 741/3/5
f 743/3/5 742/3/5 741/3/5
f 744/3/5 742/3/5 743/3/5
f 745/3/5 742/3/5 744/3/5
f 746/3/5 742/3/5 745/3/5
f 747/3/5 745/3/5 744/3/5
f 748/3/5 745/3/5 747/3/5
f 749/3/5 745/3/5 748/3/5
f 750/3/5 745/3/5 749/3/5
f 751/1/5 749/1/5 748/1/5
f 752/1/5 749/1/5 751/1/5
f 755/1/5 754/1/5 753/1/5
f 756/1/5 754/1/5 755/1/5
f 763/4/5 758/4/5 757/4/5
f 764/3/5 759/3/5 758/3/5
f 764/4/5 758/4/5 763/4/5
f 765/3/5 759/3/5 764/3/5
f 766/3/5 761/3/5 760/3/5
f 767/4/5 762/4/5 761/4/5
f 767/3/5 761/3/5 766/3/5
f 768/4/5 762/4/5 767/4/5
f 771/1/5 770/1/5 769/1/5
f 772/1/5 770/1/5 771/1/5
f 777/4/5 774/4/5 773/4/5
f 778/4/5 774/4/5 777/4/5
f 779/4/5 776/4/5 775/4/5
f 780/4/5 776/4/5 779/4/5
f 785/3/5 782/3/5 781/3/5
f 786/3/5 782/3/5 785/3/5
f 787/3/5 784/3/5 783/3/5
f 788/3/5 784/3/5 787/3/5
f 793/4/5 790/4/5 789/4/5
f 794/4/5 790/4/5 793/4/5
f 795/4/5 792/4/5 791/4/5
f 796/4/5 792/4/5 795/4/5
f 801/4/5 798/4/5 797/4/5
f 802/4/5 798/4/5 801/4/5
f 803/4/5 800/4/5 799/4/5
f 804/4/5 800/4/5 803/4/5
f 805/3/6 806/3/6 810/3/6
f 810/3/6 806/3/6 811/3/6
f 807/3/6 808/3/6 814/3/6
f 814/3/6 808/3/6 815/3/6
f 811/3/6 812/3/6 817/3/6
f 809/3/6 810/3/6 817/3/6
f 810/3/6 811/3/6 817/3/6
f 817/3/6 812/3/6 818/3/6
f 818/3/6 812/3/6 819/3/6
f 819/3/6 812/3/6 820/3/6
f 815/3/6 816/3/6 821/3/6
f 814/3/6 815/3/6 821/3/6
f 813/3/6 814/3/6 821/3/6
f 821/3/6 816/3/6 822/3/6
f 822/3/6 816/3/6 823/3/6
f 823/3/6 816/3/6 824/3/6
f 825/3/6 826/3/6 830/3/6
f 830/3/6 826/3/6 831/3/6
f 827/3/6 828/3/6 834/3/6
f 834/3/6 828/3/6 835/3/6
f 831/3/6 832/3/6 837/3/6
f 829/3/6 830/3/6 837/3/6
f 830/3/6 831/3/6 837/3/6
f 837/3/6 832/3/6 838/3/6
f 838/3/6 832/3/6 839/3/6
f 839/3/6 832/3/6 840/3/6
f 835/3/6 836/3/6 841/3/6
f 834/3/6 835/3/6 841/3/6
f 833/3/6 834/3/6 841/3/6
f 841/3/6 836/3/6 842/3/6
f 842/3/6 836/3/6 843/3/6
f 843/3/6 836/3/6 844/3/6
f 845/4/6 846/4/6 851/4/6
f 846/3/6 847/3/6 852/3/6
f 851/4/6 846/4/6 852/4/6
f 852/3/6 847/3/6 853/3/6
f 848/3/6 849/3/6 854/3/6
f 849/4/6 850/4/6 855/4/6
f 854/3/6 849/3/6 855/3/6
f 855/4/6 850/4/6 856/4/6
f 857/3/6 858/3/6 861/3/6
f 861/3/6 858/3/6 862/3/6
f 859/3/6 860/3/6 863/3/6
f 863/3/6 860/3/6 864/3/6
f 865/3/6 866/3/6 869/3/6
f 869/3/6 866/3/6 870/3/6
f 867/3/6 868/3/6 871/3/6
f 871/3/6 868/3/6 872/3/6
f 873/3/6 874/3/6 875/3/6
f 875/3/6 874/3/6 876/3/6
f 876/3/6 874/3/6 877/3/6
f 877/3/6 874/3/6 878/3/6
f 878/3/6 874/3/6 879/3/6
f 879/3/6 874/3/6 880/3/6
f 881/4/6 882/4/6 887/4/6
f 882/3/6 883/3/6 888/3/6
f 887/4/6 882/4/6 888/4/6
f 888/3/6 883/3/6 889/3/6
f 884/3/6 885/3/6 890/3/6
f 885/4/6 886/4/6 891/4/6
f 890/3/6 885/3/6 891/3/6
f 891/4/6 886/4/6 892/4/6
f 893/1/6 894/1/6 895/1/6
f 895/1/6 894/1/6 896/1/6
f 897/3/6 898/3/6 901/3/6
f 901/3/6 898/3/6 902/3/6
f 899/3/6 900/3/6 903/3/6
f 903/3/6 900/3/6 904/3/6
f 905/4/6 906/4/6 909/4/6
f 909/4/6 906/4/6 910/4/6
f 907/4/6 908/4/6 911/4/6
f 911/4/6 908/4/6 912/4/6
f 913/3/6 914/3/6 917/3/6
f 917/3/6 914/3/6 918/3/6
f 915/3/6 916/3/6 923/3/6
f 923/3/6 916/3/6 924/3/6
f 919/3/6 920/3/6 925/3/6
f 925/3/6 920/3/6 926/3/6
f 921/3/6 922/3/6 927/3/6
f 927/3/6 922/3/6 928/3/6
f 929/1/6 930/1/6 931/1/6
f 931/1/6 930/1/6 932/1/6
f 933/3/6 934/3/6 935/3/6
f 935/3/6 934/3/6 936/3/6
f 937/3/6 938/3/6 941/3/6
f 941/3/6 938/3/6 942/3/6
f 939/3/6 940/3/6 943/3/6
f 943/3/6 940/3/6 944/3/6
f 942/3/6 938/3/6 945/3/6
f 945/3/6 938/3/6 946/3/6
f 939/3/6 943/3/6 947/3/6
f 947/3/6 943/3/6 948/3/6
f 949/1/6 950/1/6 951/1/6
f 951/1/6 950/1/6 952/1/6
f 955/3/6 956/3/6 959/3/6
f 959/3/6 956/3/6 960/3/6
f 957/3/6 958/3/6 961/3/6
f 961/3/6 958/3/6 962/3/6
f 953/3/6 954/3/6 963/3/6
f 963/3/6 954/3/6 964/3/6
f 953/3/6 963/3/6 965/3/6
f 965/3/6 963/3/6 966/3/6
f 964/3/6 954/3/6 967/3/6
f 967/3/6 954/3/6 968/3/6
f 966/1/6 967/1/6 969/1/6
f 969/1/6 967/1/6 970/1/6
f 971/4/6 972/4/6 975/4/6
f 975/4/6 972/4/6 976/4/6
f 973/4/6 974/4/6 977/4/6
f 977/4/6 974/4/6 978/4/6
f 979/1/6 980/1/6 981/1/6
f 981/1/6 980/1/6 982/1/6
f 983/4/6 984/4/6 987/4/6
f 987/4/6 984/4/6 988/4/6
f 985/4/6 986/4/6 989/4/6
f 989/4/6 986/4/6 990/4/6
